ISO-10303-21;
HEADER;
FILE_DESCRIPTION(('FreeCAD Model'),'2;1');
FILE_NAME('Open CASCADE Shape Model','2023-01-02T22:37:32',(''),(''),
  'Open CASCADE STEP processor 7.6','FreeCAD','Unknown');
FILE_SCHEMA(('AUTOMOTIVE_DESIGN { 1 0 10303 214 1 1 1 1 }'));
ENDSEC;
DATA;
#1 = APPLICATION_PROTOCOL_DEFINITION('international standard',
  'automotive_design',2000,#2);
#2 = APPLICATION_CONTEXT(
  'core data for automotive mechanical design processes');
#3 = SHAPE_DEFINITION_REPRESENTATION(#4,#10);
#4 = PRODUCT_DEFINITION_SHAPE('','',#5);
#5 = PRODUCT_DEFINITION('design','',#6,#9);
#6 = PRODUCT_DEFINITION_FORMATION('','',#7);
#7 = PRODUCT('Cover','Cover','',(#8));
#8 = PRODUCT_CONTEXT('',#2,'mechanical');
#9 = PRODUCT_DEFINITION_CONTEXT('part definition',#2,'design');
#10 = ADVANCED_BREP_SHAPE_REPRESENTATION('',(#11,#15),#852);
#11 = AXIS2_PLACEMENT_3D('',#12,#13,#14);
#12 = CARTESIAN_POINT('',(0.,0.,0.));
#13 = DIRECTION('',(0.,0.,1.));
#14 = DIRECTION('',(1.,0.,-0.));
#15 = MANIFOLD_SOLID_BREP('',#16);
#16 = CLOSED_SHELL('',(#17,#50,#75,#100,#109,#188,#267,#292,#316,#388,
    #460,#484,#549,#574,#599,#616,#633,#650,#667,#684,#696,#713,#730,
    #747,#764,#781,#793,#818,#843));
#17 = ADVANCED_FACE('',(#18),#45,.T.);
#18 = FACE_BOUND('',#19,.T.);
#19 = EDGE_LOOP('',(#20,#30,#37,#38));
#20 = ORIENTED_EDGE('',*,*,#21,.F.);
#21 = EDGE_CURVE('',#22,#24,#26,.T.);
#22 = VERTEX_POINT('',#23);
#23 = CARTESIAN_POINT('',(-18.86320343559,-21.21320343559,8.));
#24 = VERTEX_POINT('',#25);
#25 = CARTESIAN_POINT('',(-18.86320343559,-21.21320343559,3.6));
#26 = LINE('',#27,#28);
#27 = CARTESIAN_POINT('',(-18.86320343559,-21.21320343559,8.6));
#28 = VECTOR('',#29,1.);
#29 = DIRECTION('',(-0.,-0.,-1.));
#30 = ORIENTED_EDGE('',*,*,#31,.F.);
#31 = EDGE_CURVE('',#22,#22,#32,.T.);
#32 = CIRCLE('',#33,2.35);
#33 = AXIS2_PLACEMENT_3D('',#34,#35,#36);
#34 = CARTESIAN_POINT('',(-21.21320343559,-21.21320343559,8.));
#35 = DIRECTION('',(0.,0.,1.));
#36 = DIRECTION('',(1.,0.,0.));
#37 = ORIENTED_EDGE('',*,*,#21,.T.);
#38 = ORIENTED_EDGE('',*,*,#39,.T.);
#39 = EDGE_CURVE('',#24,#24,#40,.T.);
#40 = CIRCLE('',#41,2.35);
#41 = AXIS2_PLACEMENT_3D('',#42,#43,#44);
#42 = CARTESIAN_POINT('',(-21.21320343559,-21.21320343559,3.6));
#43 = DIRECTION('',(0.,-0.,1.));
#44 = DIRECTION('',(1.,0.,0.));
#45 = CYLINDRICAL_SURFACE('',#46,2.35);
#46 = AXIS2_PLACEMENT_3D('',#47,#48,#49);
#47 = CARTESIAN_POINT('',(-21.21320343559,-21.21320343559,8.6));
#48 = DIRECTION('',(0.,0.,1.));
#49 = DIRECTION('',(1.,0.,0.));
#50 = ADVANCED_FACE('',(#51),#70,.T.);
#51 = FACE_BOUND('',#52,.F.);
#52 = EDGE_LOOP('',(#53,#61,#62,#63));
#53 = ORIENTED_EDGE('',*,*,#54,.F.);
#54 = EDGE_CURVE('',#24,#55,#57,.T.);
#55 = VERTEX_POINT('',#56);
#56 = CARTESIAN_POINT('',(-19.86320343559,-21.21320343559,2.6));
#57 = LINE('',#58,#59);
#58 = CARTESIAN_POINT('',(-18.86320343559,-21.21320343559,3.6));
#59 = VECTOR('',#60,1.);
#60 = DIRECTION('',(-0.707106781187,0.,-0.707106781187));
#61 = ORIENTED_EDGE('',*,*,#39,.T.);
#62 = ORIENTED_EDGE('',*,*,#54,.T.);
#63 = ORIENTED_EDGE('',*,*,#64,.F.);
#64 = EDGE_CURVE('',#55,#55,#65,.T.);
#65 = CIRCLE('',#66,1.35);
#66 = AXIS2_PLACEMENT_3D('',#67,#68,#69);
#67 = CARTESIAN_POINT('',(-21.21320343559,-21.21320343559,2.6));
#68 = DIRECTION('',(0.,-0.,1.));
#69 = DIRECTION('',(1.,0.,0.));
#70 = CONICAL_SURFACE('',#71,2.35,0.785398163397);
#71 = AXIS2_PLACEMENT_3D('',#72,#73,#74);
#72 = CARTESIAN_POINT('',(-21.21320343559,-21.21320343559,3.6));
#73 = DIRECTION('',(0.,-0.,1.));
#74 = DIRECTION('',(1.,0.,-0.));
#75 = ADVANCED_FACE('',(#76),#95,.T.);
#76 = FACE_BOUND('',#77,.F.);
#77 = EDGE_LOOP('',(#78,#86,#93,#94));
#78 = ORIENTED_EDGE('',*,*,#79,.F.);
#79 = EDGE_CURVE('',#80,#22,#82,.T.);
#80 = VERTEX_POINT('',#81);
#81 = CARTESIAN_POINT('',(-18.36320343559,-21.21320343559,8.5));
#82 = LINE('',#83,#84);
#83 = CARTESIAN_POINT('',(-18.86320343559,-21.21320343559,8.));
#84 = VECTOR('',#85,1.);
#85 = DIRECTION('',(-0.707106781187,-0.,-0.707106781187));
#86 = ORIENTED_EDGE('',*,*,#87,.T.);
#87 = EDGE_CURVE('',#80,#80,#88,.T.);
#88 = CIRCLE('',#89,2.85);
#89 = AXIS2_PLACEMENT_3D('',#90,#91,#92);
#90 = CARTESIAN_POINT('',(-21.21320343559,-21.21320343559,8.5));
#91 = DIRECTION('',(0.,0.,1.));
#92 = DIRECTION('',(1.,0.,0.));
#93 = ORIENTED_EDGE('',*,*,#79,.T.);
#94 = ORIENTED_EDGE('',*,*,#31,.F.);
#95 = CONICAL_SURFACE('',#96,2.35,0.785398163397);
#96 = AXIS2_PLACEMENT_3D('',#97,#98,#99);
#97 = CARTESIAN_POINT('',(-21.21320343559,-21.21320343559,8.));
#98 = DIRECTION('',(0.,0.,1.));
#99 = DIRECTION('',(1.,0.,0.));
#100 = ADVANCED_FACE('',(#101),#104,.F.);
#101 = FACE_BOUND('',#102,.F.);
#102 = EDGE_LOOP('',(#103));
#103 = ORIENTED_EDGE('',*,*,#64,.T.);
#104 = PLANE('',#105);
#105 = AXIS2_PLACEMENT_3D('',#106,#107,#108);
#106 = CARTESIAN_POINT('',(6.551539056784E-02,-1.545370210695,2.6));
#107 = DIRECTION('',(0.,0.,1.));
#108 = DIRECTION('',(0.,1.,0.));
#109 = ADVANCED_FACE('',(#110,#169,#172),#183,.F.);
#110 = FACE_BOUND('',#111,.F.);
#111 = EDGE_LOOP('',(#112,#122,#131,#139,#147,#155,#163));
#112 = ORIENTED_EDGE('',*,*,#113,.T.);
#113 = EDGE_CURVE('',#114,#116,#118,.T.);
#114 = VERTEX_POINT('',#115);
#115 = CARTESIAN_POINT('',(26.500000000001,-11.65075759507,
    8.500000000001));
#116 = VERTEX_POINT('',#117);
#117 = CARTESIAN_POINT('',(26.5,23.5,8.5));
#118 = LINE('',#119,#120);
#119 = CARTESIAN_POINT('',(26.5,-12.3578643762,8.5));
#120 = VECTOR('',#121,1.);
#121 = DIRECTION('',(0.,1.,0.));
#122 = ORIENTED_EDGE('',*,*,#123,.F.);
#123 = EDGE_CURVE('',#124,#116,#126,.T.);
#124 = VERTEX_POINT('',#125);
#125 = CARTESIAN_POINT('',(23.5,26.5,8.5));
#126 = CIRCLE('',#127,3.);
#127 = AXIS2_PLACEMENT_3D('',#128,#129,#130);
#128 = CARTESIAN_POINT('',(23.5,23.5,8.5));
#129 = DIRECTION('',(-0.,-0.,-1.));
#130 = DIRECTION('',(0.,-1.,0.));
#131 = ORIENTED_EDGE('',*,*,#132,.T.);
#132 = EDGE_CURVE('',#124,#133,#135,.T.);
#133 = VERTEX_POINT('',#134);
#134 = CARTESIAN_POINT('',(-11.65075759508,26.5,8.5));
#135 = LINE('',#136,#137);
#136 = CARTESIAN_POINT('',(26.5,26.5,8.5));
#137 = VECTOR('',#138,1.);
#138 = DIRECTION('',(-1.,0.,0.));
#139 = ORIENTED_EDGE('',*,*,#140,.T.);
#140 = EDGE_CURVE('',#133,#141,#143,.T.);
#141 = VERTEX_POINT('',#142);
#142 = CARTESIAN_POINT('',(-26.49999999999,11.650757595085,
    8.499999999995));
#143 = LINE('',#144,#145);
#144 = CARTESIAN_POINT('',(-12.00431098567,26.14644660941,8.5));
#145 = VECTOR('',#146,1.);
#146 = DIRECTION('',(-0.707106781187,-0.707106781187,0.));
#147 = ORIENTED_EDGE('',*,*,#148,.T.);
#148 = EDGE_CURVE('',#141,#149,#151,.T.);
#149 = VERTEX_POINT('',#150);
#150 = CARTESIAN_POINT('',(-26.5,-26.5,8.5));
#151 = LINE('',#152,#153);
#152 = CARTESIAN_POINT('',(-26.5,12.357864376269,8.5));
#153 = VECTOR('',#154,1.);
#154 = DIRECTION('',(0.,-1.,0.));
#155 = ORIENTED_EDGE('',*,*,#156,.T.);
#156 = EDGE_CURVE('',#149,#157,#159,.T.);
#157 = VERTEX_POINT('',#158);
#158 = CARTESIAN_POINT('',(11.650757595164,-26.49999999997,
    8.499999999965));
#159 = LINE('',#160,#161);
#160 = CARTESIAN_POINT('',(-26.5,-26.5,8.5));
#161 = VECTOR('',#162,1.);
#162 = DIRECTION('',(1.,0.,0.));
#163 = ORIENTED_EDGE('',*,*,#164,.F.);
#164 = EDGE_CURVE('',#114,#157,#165,.T.);
#165 = LINE('',#166,#167);
#166 = CARTESIAN_POINT('',(26.146446609431,-12.00431098564,8.5));
#167 = VECTOR('',#168,1.);
#168 = DIRECTION('',(-0.707106781184,-0.707106781189,0.));
#169 = FACE_BOUND('',#170,.F.);
#170 = EDGE_LOOP('',(#171));
#171 = ORIENTED_EDGE('',*,*,#87,.F.);
#172 = FACE_BOUND('',#173,.F.);
#173 = EDGE_LOOP('',(#174));
#174 = ORIENTED_EDGE('',*,*,#175,.F.);
#175 = EDGE_CURVE('',#176,#176,#178,.T.);
#176 = VERTEX_POINT('',#177);
#177 = CARTESIAN_POINT('',(24.194234216732,18.122463014206,8.5));
#178 = CIRCLE('',#179,2.85);
#179 = AXIS2_PLACEMENT_3D('',#180,#181,#182);
#180 = CARTESIAN_POINT('',(21.344234216732,18.122463014206,8.5));
#181 = DIRECTION('',(0.,0.,1.));
#182 = DIRECTION('',(1.,0.,0.));
#183 = PLANE('',#184);
#184 = AXIS2_PLACEMENT_3D('',#185,#186,#187);
#185 = CARTESIAN_POINT('',(-1.63558E-12,-7.2715E-13,8.5));
#186 = DIRECTION('',(0.,0.,1.));
#187 = DIRECTION('',(1.,0.,0.));
#188 = ADVANCED_FACE('',(#189),#262,.T.);
#189 = FACE_BOUND('',#190,.T.);
#190 = EDGE_LOOP('',(#191,#192,#200,#208,#216,#224,#232,#240,#248,#256)
  );
#191 = ORIENTED_EDGE('',*,*,#113,.T.);
#192 = ORIENTED_EDGE('',*,*,#193,.T.);
#193 = EDGE_CURVE('',#116,#194,#196,.T.);
#194 = VERTEX_POINT('',#195);
#195 = CARTESIAN_POINT('',(26.5,23.5,9.5));
#196 = LINE('',#197,#198);
#197 = CARTESIAN_POINT('',(26.5,23.5,8.5));
#198 = VECTOR('',#199,1.);
#199 = DIRECTION('',(0.,0.,1.));
#200 = ORIENTED_EDGE('',*,*,#201,.F.);
#201 = EDGE_CURVE('',#202,#194,#204,.T.);
#202 = VERTEX_POINT('',#203);
#203 = CARTESIAN_POINT('',(26.5,-13.85786437627,9.5));
#204 = LINE('',#205,#206);
#205 = CARTESIAN_POINT('',(26.5,-12.3578643762,9.5));
#206 = VECTOR('',#207,1.);
#207 = DIRECTION('',(0.,1.,0.));
#208 = ORIENTED_EDGE('',*,*,#209,.T.);
#209 = EDGE_CURVE('',#202,#210,#212,.T.);
#210 = VERTEX_POINT('',#211);
#211 = CARTESIAN_POINT('',(26.5,-13.85786437627,-1.));
#212 = LINE('',#213,#214);
#213 = CARTESIAN_POINT('',(26.5,-13.85786437627,9.5));
#214 = VECTOR('',#215,1.);
#215 = DIRECTION('',(-0.,-0.,-1.));
#216 = ORIENTED_EDGE('',*,*,#217,.F.);
#217 = EDGE_CURVE('',#218,#210,#220,.T.);
#218 = VERTEX_POINT('',#219);
#219 = CARTESIAN_POINT('',(26.5,-9.529437251523,-1.));
#220 = LINE('',#221,#222);
#221 = CARTESIAN_POINT('',(26.5,-9.529437251523,-1.));
#222 = VECTOR('',#223,1.);
#223 = DIRECTION('',(-1.26E-15,-1.,0.));
#224 = ORIENTED_EDGE('',*,*,#225,.T.);
#225 = EDGE_CURVE('',#218,#226,#228,.T.);
#226 = VERTEX_POINT('',#227);
#227 = CARTESIAN_POINT('',(26.5,-9.529437251523,-0.99));
#228 = LINE('',#229,#230);
#229 = CARTESIAN_POINT('',(26.5,-9.529437251523,-1.));
#230 = VECTOR('',#231,1.);
#231 = DIRECTION('',(0.,0.,1.));
#232 = ORIENTED_EDGE('',*,*,#233,.F.);
#233 = EDGE_CURVE('',#234,#226,#236,.T.);
#234 = VERTEX_POINT('',#235);
#235 = CARTESIAN_POINT('',(26.5,-12.34372224064,1.));
#236 = LINE('',#237,#238);
#237 = CARTESIAN_POINT('',(26.5,-13.79613249949,2.027009143099));
#238 = VECTOR('',#239,1.);
#239 = DIRECTION('',(9.E-17,0.816496580928,-0.57735026919));
#240 = ORIENTED_EDGE('',*,*,#241,.T.);
#241 = EDGE_CURVE('',#234,#242,#244,.T.);
#242 = VERTEX_POINT('',#243);
#243 = CARTESIAN_POINT('',(26.5,-12.35786437626,1.));
#244 = LINE('',#245,#246);
#245 = CARTESIAN_POINT('',(26.5,-9.529437251523,1.));
#246 = VECTOR('',#247,1.);
#247 = DIRECTION('',(-1.26E-15,-1.,0.));
#248 = ORIENTED_EDGE('',*,*,#249,.F.);
#249 = EDGE_CURVE('',#250,#242,#252,.T.);
#250 = VERTEX_POINT('',#251);
#251 = CARTESIAN_POINT('',(26.5,-12.35786437626,8.));
#252 = LINE('',#253,#254);
#253 = CARTESIAN_POINT('',(26.5,-12.35786437626,9.5));
#254 = VECTOR('',#255,1.);
#255 = DIRECTION('',(-0.,-0.,-1.));
#256 = ORIENTED_EDGE('',*,*,#257,.F.);
#257 = EDGE_CURVE('',#114,#250,#258,.T.);
#258 = LINE('',#259,#260);
#259 = CARTESIAN_POINT('',(26.5,-7.571651891707,11.384363304026));
#260 = VECTOR('',#261,1.);
#261 = DIRECTION('',(1.E-16,-0.816496580928,-0.577350269189));
#262 = PLANE('',#263);
#263 = AXIS2_PLACEMENT_3D('',#264,#265,#266);
#264 = CARTESIAN_POINT('',(26.5,2.026145948619,7.464117341366));
#265 = DIRECTION('',(1.,1.E-17,1.6E-16));
#266 = DIRECTION('',(-1.6E-16,0.,1.));
#267 = ADVANCED_FACE('',(#268),#287,.T.);
#268 = FACE_BOUND('',#269,.F.);
#269 = EDGE_LOOP('',(#270,#271,#272,#281));
#270 = ORIENTED_EDGE('',*,*,#123,.T.);
#271 = ORIENTED_EDGE('',*,*,#193,.T.);
#272 = ORIENTED_EDGE('',*,*,#273,.F.);
#273 = EDGE_CURVE('',#274,#194,#276,.T.);
#274 = VERTEX_POINT('',#275);
#275 = CARTESIAN_POINT('',(23.5,26.5,9.5));
#276 = CIRCLE('',#277,3.);
#277 = AXIS2_PLACEMENT_3D('',#278,#279,#280);
#278 = CARTESIAN_POINT('',(23.5,23.5,9.5));
#279 = DIRECTION('',(-0.,-0.,-1.));
#280 = DIRECTION('',(0.,-1.,0.));
#281 = ORIENTED_EDGE('',*,*,#282,.F.);
#282 = EDGE_CURVE('',#124,#274,#283,.T.);
#283 = LINE('',#284,#285);
#284 = CARTESIAN_POINT('',(23.5,26.5,8.5));
#285 = VECTOR('',#286,1.);
#286 = DIRECTION('',(0.,0.,1.));
#287 = CYLINDRICAL_SURFACE('',#288,3.);
#288 = AXIS2_PLACEMENT_3D('',#289,#290,#291);
#289 = CARTESIAN_POINT('',(23.5,23.5,8.5));
#290 = DIRECTION('',(0.,0.,1.));
#291 = DIRECTION('',(-1.E-17,1.,0.));
#292 = ADVANCED_FACE('',(#293),#311,.F.);
#293 = FACE_BOUND('',#294,.F.);
#294 = EDGE_LOOP('',(#295,#296,#297,#305));
#295 = ORIENTED_EDGE('',*,*,#257,.F.);
#296 = ORIENTED_EDGE('',*,*,#164,.T.);
#297 = ORIENTED_EDGE('',*,*,#298,.T.);
#298 = EDGE_CURVE('',#157,#299,#301,.T.);
#299 = VERTEX_POINT('',#300);
#300 = CARTESIAN_POINT('',(12.3578643763,-26.50000000002,7.999999999966)
  );
#301 = LINE('',#302,#303);
#302 = CARTESIAN_POINT('',(12.285697099649,-26.5,8.051029970683));
#303 = VECTOR('',#304,1.);
#304 = DIRECTION('',(0.816496580928,1.E-16,-0.57735026919));
#305 = ORIENTED_EDGE('',*,*,#306,.F.);
#306 = EDGE_CURVE('',#250,#299,#307,.T.);
#307 = LINE('',#308,#309);
#308 = CARTESIAN_POINT('',(26.500000000026,-12.35786437623,8.));
#309 = VECTOR('',#310,1.);
#310 = DIRECTION('',(-0.707106781184,-0.707106781189,0.));
#311 = PLANE('',#312);
#312 = AXIS2_PLACEMENT_3D('',#313,#314,#315);
#313 = CARTESIAN_POINT('',(26.323223304729,-12.18108768093,8.25));
#314 = DIRECTION('',(0.5,-0.5,0.707106781187));
#315 = DIRECTION('',(-0.707106781185,-0.707106781188,-1.707911589932E-12
    ));
#316 = ADVANCED_FACE('',(#317),#383,.T.);
#317 = FACE_BOUND('',#318,.T.);
#318 = EDGE_LOOP('',(#319,#320,#328,#336,#344,#352,#360,#368,#376,#382)
  );
#319 = ORIENTED_EDGE('',*,*,#132,.T.);
#320 = ORIENTED_EDGE('',*,*,#321,.F.);
#321 = EDGE_CURVE('',#322,#133,#324,.T.);
#322 = VERTEX_POINT('',#323);
#323 = CARTESIAN_POINT('',(-12.35786437627,26.5,8.));
#324 = LINE('',#325,#326);
#325 = CARTESIAN_POINT('',(-7.57165189173,26.5,11.384363304024));
#326 = VECTOR('',#327,1.);
#327 = DIRECTION('',(0.816496580928,1.2E-16,0.57735026919));
#328 = ORIENTED_EDGE('',*,*,#329,.T.);
#329 = EDGE_CURVE('',#322,#330,#332,.T.);
#330 = VERTEX_POINT('',#331);
#331 = CARTESIAN_POINT('',(-12.35786437626,26.5,1.));
#332 = LINE('',#333,#334);
#333 = CARTESIAN_POINT('',(-12.35786437627,26.5,9.5));
#334 = VECTOR('',#335,1.);
#335 = DIRECTION('',(-0.,-0.,-1.));
#336 = ORIENTED_EDGE('',*,*,#337,.T.);
#337 = EDGE_CURVE('',#330,#338,#340,.T.);
#338 = VERTEX_POINT('',#339);
#339 = CARTESIAN_POINT('',(-12.34372224064,26.5,1.));
#340 = LINE('',#341,#342);
#341 = CARTESIAN_POINT('',(-12.35786437626,26.5,1.));
#342 = VECTOR('',#343,1.);
#343 = DIRECTION('',(1.,-1.26E-15,0.));
#344 = ORIENTED_EDGE('',*,*,#345,.T.);
#345 = EDGE_CURVE('',#338,#346,#348,.T.);
#346 = VERTEX_POINT('',#347);
#347 = CARTESIAN_POINT('',(-9.529437251523,26.5,-0.99));
#348 = LINE('',#349,#350);
#349 = CARTESIAN_POINT('',(-13.7961324995,26.5,2.027009143102));
#350 = VECTOR('',#351,1.);
#351 = DIRECTION('',(0.816496580928,-1.E-16,-0.57735026919));
#352 = ORIENTED_EDGE('',*,*,#353,.F.);
#353 = EDGE_CURVE('',#354,#346,#356,.T.);
#354 = VERTEX_POINT('',#355);
#355 = CARTESIAN_POINT('',(-9.529437251523,26.5,-1.));
#356 = LINE('',#357,#358);
#357 = CARTESIAN_POINT('',(-9.529437251523,26.5,-1.));
#358 = VECTOR('',#359,1.);
#359 = DIRECTION('',(0.,0.,1.));
#360 = ORIENTED_EDGE('',*,*,#361,.F.);
#361 = EDGE_CURVE('',#362,#354,#364,.T.);
#362 = VERTEX_POINT('',#363);
#363 = CARTESIAN_POINT('',(-13.85786437627,26.5,-1.));
#364 = LINE('',#365,#366);
#365 = CARTESIAN_POINT('',(-12.35786437626,26.5,-1.));
#366 = VECTOR('',#367,1.);
#367 = DIRECTION('',(1.,-1.26E-15,0.));
#368 = ORIENTED_EDGE('',*,*,#369,.F.);
#369 = EDGE_CURVE('',#370,#362,#372,.T.);
#370 = VERTEX_POINT('',#371);
#371 = CARTESIAN_POINT('',(-13.85786437627,26.5,9.5));
#372 = LINE('',#373,#374);
#373 = CARTESIAN_POINT('',(-13.85786437627,26.5,9.5));
#374 = VECTOR('',#375,1.);
#375 = DIRECTION('',(-0.,-0.,-1.));
#376 = ORIENTED_EDGE('',*,*,#377,.T.);
#377 = EDGE_CURVE('',#370,#274,#378,.T.);
#378 = LINE('',#379,#380);
#379 = CARTESIAN_POINT('',(-13.85786437627,26.5,9.5));
#380 = VECTOR('',#381,1.);
#381 = DIRECTION('',(1.,0.,0.));
#382 = ORIENTED_EDGE('',*,*,#282,.F.);
#383 = PLANE('',#384);
#384 = AXIS2_PLACEMENT_3D('',#385,#386,#387);
#385 = CARTESIAN_POINT('',(2.026145948609,26.5,7.464117341367));
#386 = DIRECTION('',(-1.E-17,1.,-1.9E-16));
#387 = DIRECTION('',(0.,1.9E-16,1.));
#388 = ADVANCED_FACE('',(#389),#455,.T.);
#389 = FACE_BOUND('',#390,.T.);
#390 = EDGE_LOOP('',(#391,#399,#407,#415,#423,#431,#439,#447,#453,#454)
  );
#391 = ORIENTED_EDGE('',*,*,#392,.T.);
#392 = EDGE_CURVE('',#299,#393,#395,.T.);
#393 = VERTEX_POINT('',#394);
#394 = CARTESIAN_POINT('',(12.357864376269,-26.5,1.));
#395 = LINE('',#396,#397);
#396 = CARTESIAN_POINT('',(12.357864376276,-26.5,9.5));
#397 = VECTOR('',#398,1.);
#398 = DIRECTION('',(-0.,-0.,-1.));
#399 = ORIENTED_EDGE('',*,*,#400,.F.);
#400 = EDGE_CURVE('',#401,#393,#403,.T.);
#401 = VERTEX_POINT('',#402);
#402 = CARTESIAN_POINT('',(12.343722240645,-26.5,1.));
#403 = LINE('',#404,#405);
#404 = CARTESIAN_POINT('',(9.529437251523,-26.5,1.));
#405 = VECTOR('',#406,1.);
#406 = DIRECTION('',(1.,0.,0.));
#407 = ORIENTED_EDGE('',*,*,#408,.T.);
#408 = EDGE_CURVE('',#401,#409,#411,.T.);
#409 = VERTEX_POINT('',#410);
#410 = CARTESIAN_POINT('',(9.529437251523,-26.5,-0.99));
#411 = LINE('',#412,#413);
#412 = CARTESIAN_POINT('',(8.139278250011,-26.5,-1.972990856896));
#413 = VECTOR('',#414,1.);
#414 = DIRECTION('',(-0.816496580928,7.E-17,-0.57735026919));
#415 = ORIENTED_EDGE('',*,*,#416,.F.);
#416 = EDGE_CURVE('',#417,#409,#419,.T.);
#417 = VERTEX_POINT('',#418);
#418 = CARTESIAN_POINT('',(9.529437251523,-26.5,-1.));
#419 = LINE('',#420,#421);
#420 = CARTESIAN_POINT('',(9.529437251523,-26.5,-1.));
#421 = VECTOR('',#422,1.);
#422 = DIRECTION('',(0.,0.,1.));
#423 = ORIENTED_EDGE('',*,*,#424,.T.);
#424 = EDGE_CURVE('',#417,#425,#427,.T.);
#425 = VERTEX_POINT('',#426);
#426 = CARTESIAN_POINT('',(13.857864376278,-26.5,-1.));
#427 = LINE('',#428,#429);
#428 = CARTESIAN_POINT('',(12.357864376276,-26.5,-1.));
#429 = VECTOR('',#430,1.);
#430 = DIRECTION('',(1.,0.,0.));
#431 = ORIENTED_EDGE('',*,*,#432,.F.);
#432 = EDGE_CURVE('',#433,#425,#435,.T.);
#433 = VERTEX_POINT('',#434);
#434 = CARTESIAN_POINT('',(13.857864376278,-26.5,9.5));
#435 = LINE('',#436,#437);
#436 = CARTESIAN_POINT('',(13.857864376278,-26.5,9.5));
#437 = VECTOR('',#438,1.);
#438 = DIRECTION('',(-0.,-0.,-1.));
#439 = ORIENTED_EDGE('',*,*,#440,.F.);
#440 = EDGE_CURVE('',#441,#433,#443,.T.);
#441 = VERTEX_POINT('',#442);
#442 = CARTESIAN_POINT('',(-26.5,-26.5,9.5));
#443 = LINE('',#444,#445);
#444 = CARTESIAN_POINT('',(-26.5,-26.5,9.5));
#445 = VECTOR('',#446,1.);
#446 = DIRECTION('',(1.,0.,0.));
#447 = ORIENTED_EDGE('',*,*,#448,.F.);
#448 = EDGE_CURVE('',#149,#441,#449,.T.);
#449 = LINE('',#450,#451);
#450 = CARTESIAN_POINT('',(-26.5,-26.5,8.5));
#451 = VECTOR('',#452,1.);
#452 = DIRECTION('',(0.,0.,1.));
#453 = ORIENTED_EDGE('',*,*,#156,.T.);
#454 = ORIENTED_EDGE('',*,*,#298,.T.);
#455 = PLANE('',#456);
#456 = AXIS2_PLACEMENT_3D('',#457,#458,#459);
#457 = CARTESIAN_POINT('',(-2.026145948601,-26.5,7.464117341368));
#458 = DIRECTION('',(2.E-17,-1.,-1.5E-16));
#459 = DIRECTION('',(0.,1.5E-16,-1.));
#460 = ADVANCED_FACE('',(#461),#479,.T.);
#461 = FACE_BOUND('',#462,.F.);
#462 = EDGE_LOOP('',(#463,#464,#472,#478));
#463 = ORIENTED_EDGE('',*,*,#321,.F.);
#464 = ORIENTED_EDGE('',*,*,#465,.T.);
#465 = EDGE_CURVE('',#322,#466,#468,.T.);
#466 = VERTEX_POINT('',#467);
#467 = CARTESIAN_POINT('',(-26.5,12.357864376266,7.999999999995));
#468 = LINE('',#469,#470);
#469 = CARTESIAN_POINT('',(-12.35786437627,26.500000000003,8.));
#470 = VECTOR('',#471,1.);
#471 = DIRECTION('',(-0.707106781187,-0.707106781187,0.));
#472 = ORIENTED_EDGE('',*,*,#473,.T.);
#473 = EDGE_CURVE('',#466,#141,#474,.T.);
#474 = LINE('',#475,#476);
#475 = CARTESIAN_POINT('',(-26.5,12.285697099634,8.051029970684));
#476 = VECTOR('',#477,1.);
#477 = DIRECTION('',(8.E-17,-0.816496580928,0.577350269189));
#478 = ORIENTED_EDGE('',*,*,#140,.F.);
#479 = PLANE('',#480);
#480 = AXIS2_PLACEMENT_3D('',#481,#482,#483);
#481 = CARTESIAN_POINT('',(-12.18108768097,26.323223304706,8.25));
#482 = DIRECTION('',(0.5,-0.5,-0.707106781187));
#483 = DIRECTION('',(0.707106781186,0.707106781187,2.292055434339E-13));
#484 = ADVANCED_FACE('',(#485),#544,.T.);
#485 = FACE_BOUND('',#486,.T.);
#486 = EDGE_LOOP('',(#487,#495,#496,#497,#498,#506,#514,#522,#530,#538)
  );
#487 = ORIENTED_EDGE('',*,*,#488,.F.);
#488 = EDGE_CURVE('',#466,#489,#491,.T.);
#489 = VERTEX_POINT('',#490);
#490 = CARTESIAN_POINT('',(-26.5,12.357864376269,1.));
#491 = LINE('',#492,#493);
#492 = CARTESIAN_POINT('',(-26.5,12.357864376262,9.5));
#493 = VECTOR('',#494,1.);
#494 = DIRECTION('',(-0.,-0.,-1.));
#495 = ORIENTED_EDGE('',*,*,#473,.T.);
#496 = ORIENTED_EDGE('',*,*,#148,.T.);
#497 = ORIENTED_EDGE('',*,*,#448,.T.);
#498 = ORIENTED_EDGE('',*,*,#499,.F.);
#499 = EDGE_CURVE('',#500,#441,#502,.T.);
#500 = VERTEX_POINT('',#501);
#501 = CARTESIAN_POINT('',(-26.5,13.857864376272,9.5));
#502 = LINE('',#503,#504);
#503 = CARTESIAN_POINT('',(-26.5,13.857864376272,9.5));
#504 = VECTOR('',#505,1.);
#505 = DIRECTION('',(0.,-1.,0.));
#506 = ORIENTED_EDGE('',*,*,#507,.T.);
#507 = EDGE_CURVE('',#500,#508,#510,.T.);
#508 = VERTEX_POINT('',#509);
#509 = CARTESIAN_POINT('',(-26.5,13.857864376272,-1.));
#510 = LINE('',#511,#512);
#511 = CARTESIAN_POINT('',(-26.5,13.857864376272,9.5));
#512 = VECTOR('',#513,1.);
#513 = DIRECTION('',(-0.,-0.,-1.));
#514 = ORIENTED_EDGE('',*,*,#515,.T.);
#515 = EDGE_CURVE('',#508,#516,#518,.T.);
#516 = VERTEX_POINT('',#517);
#517 = CARTESIAN_POINT('',(-26.5,9.529437251523,-1.));
#518 = LINE('',#519,#520);
#519 = CARTESIAN_POINT('',(-26.5,13.857864376272,-1.));
#520 = VECTOR('',#521,1.);
#521 = DIRECTION('',(0.,-1.,0.));
#522 = ORIENTED_EDGE('',*,*,#523,.T.);
#523 = EDGE_CURVE('',#516,#524,#526,.T.);
#524 = VERTEX_POINT('',#525);
#525 = CARTESIAN_POINT('',(-26.5,9.529437251523,-0.99));
#526 = LINE('',#527,#528);
#527 = CARTESIAN_POINT('',(-26.5,9.529437251523,-1.));
#528 = VECTOR('',#529,1.);
#529 = DIRECTION('',(0.,0.,1.));
#530 = ORIENTED_EDGE('',*,*,#531,.F.);
#531 = EDGE_CURVE('',#532,#524,#534,.T.);
#532 = VERTEX_POINT('',#533);
#533 = CARTESIAN_POINT('',(-26.5,12.343722240645,1.));
#534 = LINE('',#535,#536);
#535 = CARTESIAN_POINT('',(-26.5,8.139278250008,-1.972990856899));
#536 = VECTOR('',#537,1.);
#537 = DIRECTION('',(-1.1E-16,-0.816496580928,-0.57735026919));
#538 = ORIENTED_EDGE('',*,*,#539,.F.);
#539 = EDGE_CURVE('',#489,#532,#540,.T.);
#540 = LINE('',#541,#542);
#541 = CARTESIAN_POINT('',(-26.5,12.357864376269,1.));
#542 = VECTOR('',#543,1.);
#543 = DIRECTION('',(-1.26E-15,-1.,0.));
#544 = PLANE('',#545);
#545 = AXIS2_PLACEMENT_3D('',#546,#547,#548);
#546 = CARTESIAN_POINT('',(-26.5,-2.02614594861,7.464117341366));
#547 = DIRECTION('',(-1.,2.E-17,1.7E-16));
#548 = DIRECTION('',(-1.7E-16,0.,-1.));
#549 = ADVANCED_FACE('',(#550),#569,.T.);
#550 = FACE_BOUND('',#551,.F.);
#551 = EDGE_LOOP('',(#552,#560,#561,#562));
#552 = ORIENTED_EDGE('',*,*,#553,.F.);
#553 = EDGE_CURVE('',#176,#554,#556,.T.);
#554 = VERTEX_POINT('',#555);
#555 = CARTESIAN_POINT('',(23.694234216732,18.122463014206,8.));
#556 = LINE('',#557,#558);
#557 = CARTESIAN_POINT('',(23.694234216732,18.122463014206,8.));
#558 = VECTOR('',#559,1.);
#559 = DIRECTION('',(-0.707106781187,-0.,-0.707106781187));
#560 = ORIENTED_EDGE('',*,*,#175,.T.);
#561 = ORIENTED_EDGE('',*,*,#553,.T.);
#562 = ORIENTED_EDGE('',*,*,#563,.F.);
#563 = EDGE_CURVE('',#554,#554,#564,.T.);
#564 = CIRCLE('',#565,2.35);
#565 = AXIS2_PLACEMENT_3D('',#566,#567,#568);
#566 = CARTESIAN_POINT('',(21.344234216732,18.122463014206,8.));
#567 = DIRECTION('',(0.,0.,1.));
#568 = DIRECTION('',(1.,0.,0.));
#569 = CONICAL_SURFACE('',#570,2.35,0.785398163397);
#570 = AXIS2_PLACEMENT_3D('',#571,#572,#573);
#571 = CARTESIAN_POINT('',(21.344234216732,18.122463014206,8.));
#572 = DIRECTION('',(0.,0.,1.));
#573 = DIRECTION('',(1.,0.,0.));
#574 = ADVANCED_FACE('',(#575),#594,.T.);
#575 = FACE_BOUND('',#576,.T.);
#576 = EDGE_LOOP('',(#577,#578,#579,#580,#586,#587,#588));
#577 = ORIENTED_EDGE('',*,*,#201,.T.);
#578 = ORIENTED_EDGE('',*,*,#273,.F.);
#579 = ORIENTED_EDGE('',*,*,#377,.F.);
#580 = ORIENTED_EDGE('',*,*,#581,.F.);
#581 = EDGE_CURVE('',#500,#370,#582,.T.);
#582 = LINE('',#583,#584);
#583 = CARTESIAN_POINT('',(-26.5,13.857864376272,9.5));
#584 = VECTOR('',#585,1.);
#585 = DIRECTION('',(0.707106781186,0.707106781187,0.));
#586 = ORIENTED_EDGE('',*,*,#499,.T.);
#587 = ORIENTED_EDGE('',*,*,#440,.T.);
#588 = ORIENTED_EDGE('',*,*,#589,.F.);
#589 = EDGE_CURVE('',#202,#433,#590,.T.);
#590 = LINE('',#591,#592);
#591 = CARTESIAN_POINT('',(26.5,-13.85786437627,9.5));
#592 = VECTOR('',#593,1.);
#593 = DIRECTION('',(-0.707106781186,-0.707106781187,0.));
#594 = PLANE('',#595);
#595 = AXIS2_PLACEMENT_3D('',#596,#597,#598);
#596 = CARTESIAN_POINT('',(-4.7913E-12,-3.16163E-12,9.5));
#597 = DIRECTION('',(0.,0.,1.));
#598 = DIRECTION('',(0.,1.,0.));
#599 = ADVANCED_FACE('',(#600),#611,.F.);
#600 = FACE_BOUND('',#601,.F.);
#601 = EDGE_LOOP('',(#602,#603,#604,#605));
#602 = ORIENTED_EDGE('',*,*,#249,.F.);
#603 = ORIENTED_EDGE('',*,*,#306,.T.);
#604 = ORIENTED_EDGE('',*,*,#392,.T.);
#605 = ORIENTED_EDGE('',*,*,#606,.T.);
#606 = EDGE_CURVE('',#393,#242,#607,.T.);
#607 = LINE('',#608,#609);
#608 = CARTESIAN_POINT('',(12.357864376269,-26.5,1.));
#609 = VECTOR('',#610,1.);
#610 = DIRECTION('',(0.707106781187,0.707106781187,0.));
#611 = PLANE('',#612);
#612 = AXIS2_PLACEMENT_3D('',#613,#614,#615);
#613 = CARTESIAN_POINT('',(12.357864376276,-26.5,9.5));
#614 = DIRECTION('',(0.707106781187,-0.707106781186,0.));
#615 = DIRECTION('',(0.707106781186,0.707106781187,0.));
#616 = ADVANCED_FACE('',(#617),#628,.F.);
#617 = FACE_BOUND('',#618,.F.);
#618 = EDGE_LOOP('',(#619,#620,#626,#627));
#619 = ORIENTED_EDGE('',*,*,#209,.T.);
#620 = ORIENTED_EDGE('',*,*,#621,.T.);
#621 = EDGE_CURVE('',#210,#425,#622,.T.);
#622 = LINE('',#623,#624);
#623 = CARTESIAN_POINT('',(26.5,-13.85786437627,-1.));
#624 = VECTOR('',#625,1.);
#625 = DIRECTION('',(-0.707106781186,-0.707106781187,0.));
#626 = ORIENTED_EDGE('',*,*,#432,.F.);
#627 = ORIENTED_EDGE('',*,*,#589,.F.);
#628 = PLANE('',#629);
#629 = AXIS2_PLACEMENT_3D('',#630,#631,#632);
#630 = CARTESIAN_POINT('',(26.5,-13.85786437627,9.5));
#631 = DIRECTION('',(-0.707106781187,0.707106781186,0.));
#632 = DIRECTION('',(-0.707106781186,-0.707106781187,0.));
#633 = ADVANCED_FACE('',(#634),#645,.T.);
#634 = FACE_BOUND('',#635,.T.);
#635 = EDGE_LOOP('',(#636,#637,#638,#639));
#636 = ORIENTED_EDGE('',*,*,#400,.T.);
#637 = ORIENTED_EDGE('',*,*,#606,.T.);
#638 = ORIENTED_EDGE('',*,*,#241,.F.);
#639 = ORIENTED_EDGE('',*,*,#640,.F.);
#640 = EDGE_CURVE('',#401,#234,#641,.T.);
#641 = LINE('',#642,#643);
#642 = CARTESIAN_POINT('',(10.936579746084,-27.90714249456,1.));
#643 = VECTOR('',#644,1.);
#644 = DIRECTION('',(0.707106781187,0.707106781187,0.));
#645 = PLANE('',#646);
#646 = AXIS2_PLACEMENT_3D('',#647,#648,#649);
#647 = CARTESIAN_POINT('',(-2.86E-15,-6.3E-15,1.));
#648 = DIRECTION('',(0.,0.,1.));
#649 = DIRECTION('',(1.,0.,0.));
#650 = ADVANCED_FACE('',(#651),#662,.T.);
#651 = FACE_BOUND('',#652,.T.);
#652 = EDGE_LOOP('',(#653,#654,#655,#661));
#653 = ORIENTED_EDGE('',*,*,#621,.T.);
#654 = ORIENTED_EDGE('',*,*,#424,.F.);
#655 = ORIENTED_EDGE('',*,*,#656,.T.);
#656 = EDGE_CURVE('',#417,#218,#657,.T.);
#657 = LINE('',#658,#659);
#658 = CARTESIAN_POINT('',(9.529437251523,-26.5,-1.));
#659 = VECTOR('',#660,1.);
#660 = DIRECTION('',(0.707106781187,0.707106781187,0.));
#661 = ORIENTED_EDGE('',*,*,#217,.T.);
#662 = PLANE('',#663);
#663 = AXIS2_PLACEMENT_3D('',#664,#665,#666);
#664 = CARTESIAN_POINT('',(18.96575085917,-18.96575085916,-1.));
#665 = DIRECTION('',(-0.,-0.,-1.));
#666 = DIRECTION('',(-1.,0.,0.));
#667 = ADVANCED_FACE('',(#668),#679,.T.);
#668 = FACE_BOUND('',#669,.T.);
#669 = EDGE_LOOP('',(#670,#671,#672,#673));
#670 = ORIENTED_EDGE('',*,*,#408,.F.);
#671 = ORIENTED_EDGE('',*,*,#640,.T.);
#672 = ORIENTED_EDGE('',*,*,#233,.T.);
#673 = ORIENTED_EDGE('',*,*,#674,.F.);
#674 = EDGE_CURVE('',#409,#226,#675,.T.);
#675 = LINE('',#676,#677);
#676 = CARTESIAN_POINT('',(9.529437251523,-26.5,-0.99));
#677 = VECTOR('',#678,1.);
#678 = DIRECTION('',(0.707106781187,0.707106781187,0.));
#679 = PLANE('',#680);
#680 = AXIS2_PLACEMENT_3D('',#681,#682,#683);
#681 = CARTESIAN_POINT('',(10.233008498803,-27.20357124728,5.E-03));
#682 = DIRECTION('',(-0.5,0.5,0.707106781187));
#683 = DIRECTION('',(0.707106781187,0.707106781187,-1.110223024625E-16)
  );
#684 = ADVANCED_FACE('',(#685),#691,.T.);
#685 = FACE_BOUND('',#686,.T.);
#686 = EDGE_LOOP('',(#687,#688,#689,#690));
#687 = ORIENTED_EDGE('',*,*,#416,.T.);
#688 = ORIENTED_EDGE('',*,*,#674,.T.);
#689 = ORIENTED_EDGE('',*,*,#225,.F.);
#690 = ORIENTED_EDGE('',*,*,#656,.F.);
#691 = PLANE('',#692);
#692 = AXIS2_PLACEMENT_3D('',#693,#694,#695);
#693 = CARTESIAN_POINT('',(9.529437251523,-26.5,-1.));
#694 = DIRECTION('',(-0.707106781187,0.707106781187,0.));
#695 = DIRECTION('',(0.707106781187,0.707106781187,0.));
#696 = ADVANCED_FACE('',(#697),#708,.T.);
#697 = FACE_BOUND('',#698,.T.);
#698 = EDGE_LOOP('',(#699,#700,#701,#702));
#699 = ORIENTED_EDGE('',*,*,#329,.F.);
#700 = ORIENTED_EDGE('',*,*,#465,.T.);
#701 = ORIENTED_EDGE('',*,*,#488,.T.);
#702 = ORIENTED_EDGE('',*,*,#703,.T.);
#703 = EDGE_CURVE('',#489,#330,#704,.T.);
#704 = LINE('',#705,#706);
#705 = CARTESIAN_POINT('',(-26.5,12.357864376269,1.));
#706 = VECTOR('',#707,1.);
#707 = DIRECTION('',(0.707106781187,0.707106781187,0.));
#708 = PLANE('',#709);
#709 = AXIS2_PLACEMENT_3D('',#710,#711,#712);
#710 = CARTESIAN_POINT('',(-26.5,12.357864376262,9.5));
#711 = DIRECTION('',(0.707106781187,-0.707106781186,0.));
#712 = DIRECTION('',(0.707106781186,0.707106781187,0.));
#713 = ADVANCED_FACE('',(#714),#725,.F.);
#714 = FACE_BOUND('',#715,.F.);
#715 = EDGE_LOOP('',(#716,#717,#723,#724));
#716 = ORIENTED_EDGE('',*,*,#507,.T.);
#717 = ORIENTED_EDGE('',*,*,#718,.T.);
#718 = EDGE_CURVE('',#508,#362,#719,.T.);
#719 = LINE('',#720,#721);
#720 = CARTESIAN_POINT('',(-26.5,13.857864376272,-1.));
#721 = VECTOR('',#722,1.);
#722 = DIRECTION('',(0.707106781186,0.707106781187,0.));
#723 = ORIENTED_EDGE('',*,*,#369,.F.);
#724 = ORIENTED_EDGE('',*,*,#581,.F.);
#725 = PLANE('',#726);
#726 = AXIS2_PLACEMENT_3D('',#727,#728,#729);
#727 = CARTESIAN_POINT('',(-26.5,13.857864376272,9.5));
#728 = DIRECTION('',(0.707106781187,-0.707106781186,0.));
#729 = DIRECTION('',(0.707106781186,0.707106781187,0.));
#730 = ADVANCED_FACE('',(#731),#742,.T.);
#731 = FACE_BOUND('',#732,.T.);
#732 = EDGE_LOOP('',(#733,#734,#735,#736));
#733 = ORIENTED_EDGE('',*,*,#337,.F.);
#734 = ORIENTED_EDGE('',*,*,#703,.F.);
#735 = ORIENTED_EDGE('',*,*,#539,.T.);
#736 = ORIENTED_EDGE('',*,*,#737,.T.);
#737 = EDGE_CURVE('',#532,#338,#738,.T.);
#738 = LINE('',#739,#740);
#739 = CARTESIAN_POINT('',(-27.90714249456,10.936579746084,1.));
#740 = VECTOR('',#741,1.);
#741 = DIRECTION('',(0.707106781187,0.707106781187,0.));
#742 = PLANE('',#743);
#743 = AXIS2_PLACEMENT_3D('',#744,#745,#746);
#744 = CARTESIAN_POINT('',(-2.86E-15,-6.3E-15,1.));
#745 = DIRECTION('',(0.,0.,1.));
#746 = DIRECTION('',(1.,0.,0.));
#747 = ADVANCED_FACE('',(#748),#759,.T.);
#748 = FACE_BOUND('',#749,.T.);
#749 = EDGE_LOOP('',(#750,#751,#752,#758));
#750 = ORIENTED_EDGE('',*,*,#718,.T.);
#751 = ORIENTED_EDGE('',*,*,#361,.T.);
#752 = ORIENTED_EDGE('',*,*,#753,.F.);
#753 = EDGE_CURVE('',#516,#354,#754,.T.);
#754 = LINE('',#755,#756);
#755 = CARTESIAN_POINT('',(-26.5,9.529437251523,-1.));
#756 = VECTOR('',#757,1.);
#757 = DIRECTION('',(0.707106781187,0.707106781187,0.));
#758 = ORIENTED_EDGE('',*,*,#515,.F.);
#759 = PLANE('',#760);
#760 = AXIS2_PLACEMENT_3D('',#761,#762,#763);
#761 = CARTESIAN_POINT('',(-18.96575085917,18.965750859166,-1.));
#762 = DIRECTION('',(-0.,-0.,-1.));
#763 = DIRECTION('',(-1.,0.,0.));
#764 = ADVANCED_FACE('',(#765),#776,.F.);
#765 = FACE_BOUND('',#766,.F.);
#766 = EDGE_LOOP('',(#767,#768,#769,#770));
#767 = ORIENTED_EDGE('',*,*,#531,.F.);
#768 = ORIENTED_EDGE('',*,*,#737,.T.);
#769 = ORIENTED_EDGE('',*,*,#345,.T.);
#770 = ORIENTED_EDGE('',*,*,#771,.F.);
#771 = EDGE_CURVE('',#524,#346,#772,.T.);
#772 = LINE('',#773,#774);
#773 = CARTESIAN_POINT('',(-26.5,9.529437251523,-0.99));
#774 = VECTOR('',#775,1.);
#775 = DIRECTION('',(0.707106781187,0.707106781187,0.));
#776 = PLANE('',#777);
#777 = AXIS2_PLACEMENT_3D('',#778,#779,#780);
#778 = CARTESIAN_POINT('',(-27.20357124728,10.233008498803,5.E-03));
#779 = DIRECTION('',(-0.5,0.5,-0.707106781187));
#780 = DIRECTION('',(0.707106781187,0.707106781187,-2.775557561563E-17)
  );
#781 = ADVANCED_FACE('',(#782),#788,.F.);
#782 = FACE_BOUND('',#783,.F.);
#783 = EDGE_LOOP('',(#784,#785,#786,#787));
#784 = ORIENTED_EDGE('',*,*,#523,.T.);
#785 = ORIENTED_EDGE('',*,*,#771,.T.);
#786 = ORIENTED_EDGE('',*,*,#353,.F.);
#787 = ORIENTED_EDGE('',*,*,#753,.F.);
#788 = PLANE('',#789);
#789 = AXIS2_PLACEMENT_3D('',#790,#791,#792);
#790 = CARTESIAN_POINT('',(-26.5,9.529437251523,-1.));
#791 = DIRECTION('',(-0.707106781187,0.707106781187,0.));
#792 = DIRECTION('',(0.707106781187,0.707106781187,0.));
#793 = ADVANCED_FACE('',(#794),#813,.T.);
#794 = FACE_BOUND('',#795,.T.);
#795 = EDGE_LOOP('',(#796,#804,#805,#806));
#796 = ORIENTED_EDGE('',*,*,#797,.F.);
#797 = EDGE_CURVE('',#554,#798,#800,.T.);
#798 = VERTEX_POINT('',#799);
#799 = CARTESIAN_POINT('',(23.694234216732,18.122463014206,3.6));
#800 = LINE('',#801,#802);
#801 = CARTESIAN_POINT('',(23.694234216732,18.122463014206,8.6));
#802 = VECTOR('',#803,1.);
#803 = DIRECTION('',(-0.,-0.,-1.));
#804 = ORIENTED_EDGE('',*,*,#563,.F.);
#805 = ORIENTED_EDGE('',*,*,#797,.T.);
#806 = ORIENTED_EDGE('',*,*,#807,.T.);
#807 = EDGE_CURVE('',#798,#798,#808,.T.);
#808 = CIRCLE('',#809,2.35);
#809 = AXIS2_PLACEMENT_3D('',#810,#811,#812);
#810 = CARTESIAN_POINT('',(21.344234216732,18.122463014206,3.6));
#811 = DIRECTION('',(0.,-0.,1.));
#812 = DIRECTION('',(1.,0.,0.));
#813 = CYLINDRICAL_SURFACE('',#814,2.35);
#814 = AXIS2_PLACEMENT_3D('',#815,#816,#817);
#815 = CARTESIAN_POINT('',(21.344234216732,18.122463014206,8.6));
#816 = DIRECTION('',(0.,0.,1.));
#817 = DIRECTION('',(1.,0.,0.));
#818 = ADVANCED_FACE('',(#819),#838,.T.);
#819 = FACE_BOUND('',#820,.F.);
#820 = EDGE_LOOP('',(#821,#829,#830,#831));
#821 = ORIENTED_EDGE('',*,*,#822,.F.);
#822 = EDGE_CURVE('',#798,#823,#825,.T.);
#823 = VERTEX_POINT('',#824);
#824 = CARTESIAN_POINT('',(22.694234216732,18.122463014206,2.6));
#825 = LINE('',#826,#827);
#826 = CARTESIAN_POINT('',(23.694234216732,18.122463014206,3.6));
#827 = VECTOR('',#828,1.);
#828 = DIRECTION('',(-0.707106781187,0.,-0.707106781187));
#829 = ORIENTED_EDGE('',*,*,#807,.T.);
#830 = ORIENTED_EDGE('',*,*,#822,.T.);
#831 = ORIENTED_EDGE('',*,*,#832,.F.);
#832 = EDGE_CURVE('',#823,#823,#833,.T.);
#833 = CIRCLE('',#834,1.35);
#834 = AXIS2_PLACEMENT_3D('',#835,#836,#837);
#835 = CARTESIAN_POINT('',(21.344234216732,18.122463014206,2.6));
#836 = DIRECTION('',(0.,-0.,1.));
#837 = DIRECTION('',(1.,0.,0.));
#838 = CONICAL_SURFACE('',#839,2.35,0.785398163397);
#839 = AXIS2_PLACEMENT_3D('',#840,#841,#842);
#840 = CARTESIAN_POINT('',(21.344234216732,18.122463014206,3.6));
#841 = DIRECTION('',(0.,-0.,1.));
#842 = DIRECTION('',(1.,0.,-0.));
#843 = ADVANCED_FACE('',(#844),#847,.F.);
#844 = FACE_BOUND('',#845,.F.);
#845 = EDGE_LOOP('',(#846));
#846 = ORIENTED_EDGE('',*,*,#832,.T.);
#847 = PLANE('',#848);
#848 = AXIS2_PLACEMENT_3D('',#849,#850,#851);
#849 = CARTESIAN_POINT('',(6.551539056784E-02,-1.545370210695,2.6));
#850 = DIRECTION('',(0.,0.,1.));
#851 = DIRECTION('',(0.,1.,0.));
#852 = ( GEOMETRIC_REPRESENTATION_CONTEXT(3) 
GLOBAL_UNCERTAINTY_ASSIGNED_CONTEXT((#856)) GLOBAL_UNIT_ASSIGNED_CONTEXT
((#853,#854,#855)) REPRESENTATION_CONTEXT('Context #1',
  '3D Context with UNIT and UNCERTAINTY') );
#853 = ( LENGTH_UNIT() NAMED_UNIT(*) SI_UNIT(.MILLI.,.METRE.) );
#854 = ( NAMED_UNIT(*) PLANE_ANGLE_UNIT() SI_UNIT($,.RADIAN.) );
#855 = ( NAMED_UNIT(*) SI_UNIT($,.STERADIAN.) SOLID_ANGLE_UNIT() );
#856 = UNCERTAINTY_MEASURE_WITH_UNIT(LENGTH_MEASURE(1.E-07),#853,
  'distance_accuracy_value','confusion accuracy');
#857 = PRODUCT_RELATED_PRODUCT_CATEGORY('part',$,(#7));
#858 = MECHANICAL_DESIGN_GEOMETRIC_PRESENTATION_REPRESENTATION('',(#859)
  ,#852);
#859 = STYLED_ITEM('color',(#860),#15);
#860 = PRESENTATION_STYLE_ASSIGNMENT((#861,#867));
#861 = SURFACE_STYLE_USAGE(.BOTH.,#862);
#862 = SURFACE_SIDE_STYLE('',(#863));
#863 = SURFACE_STYLE_FILL_AREA(#864);
#864 = FILL_AREA_STYLE('',(#865));
#865 = FILL_AREA_STYLE_COLOUR('',#866);
#866 = COLOUR_RGB('',0.800000010877,0.800000010877,0.800000010877);
#867 = CURVE_STYLE('',#868,POSITIVE_LENGTH_MEASURE(0.1),#869);
#868 = DRAUGHTING_PRE_DEFINED_CURVE_FONT('continuous');
#869 = COLOUR_RGB('',9.803921802644E-02,9.803921802644E-02,
  9.803921802644E-02);
ENDSEC;
END-ISO-10303-21;
