ISO-10303-21;
HEADER;
FILE_DESCRIPTION(('FreeCAD Model'),'2;1');
FILE_NAME('Open CASCADE Shape Model','2023-01-02T22:37:10',(''),(''),
  'Open CASCADE STEP processor 7.6','FreeCAD','Unknown');
FILE_SCHEMA(('AUTOMOTIVE_DESIGN { 1 0 10303 214 1 1 1 1 }'));
ENDSEC;
DATA;
#1 = APPLICATION_PROTOCOL_DEFINITION('international standard',
  'automotive_design',2000,#2);
#2 = APPLICATION_CONTEXT(
  'core data for automotive mechanical design processes');
#3 = SHAPE_DEFINITION_REPRESENTATION(#4,#10);
#4 = PRODUCT_DEFINITION_SHAPE('','',#5);
#5 = PRODUCT_DEFINITION('design','',#6,#9);
#6 = PRODUCT_DEFINITION_FORMATION('','',#7);
#7 = PRODUCT('Body','Body','',(#8));
#8 = PRODUCT_CONTEXT('',#2,'mechanical');
#9 = PRODUCT_DEFINITION_CONTEXT('part definition',#2,'design');
#10 = ADVANCED_BREP_SHAPE_REPRESENTATION('',(#11,#15),#880);
#11 = AXIS2_PLACEMENT_3D('',#12,#13,#14);
#12 = CARTESIAN_POINT('',(0.,0.,0.));
#13 = DIRECTION('',(0.,0.,1.));
#14 = DIRECTION('',(1.,0.,-0.));
#15 = MANIFOLD_SOLID_BREP('',#16);
#16 = CLOSED_SHELL('',(#17,#82,#145,#170,#194,#250,#290,#314,#347,#434,
    #451,#476,#493,#602,#619,#636,#648,#665,#682,#699,#716,#733,#750,
    #762,#787,#812,#837,#862,#871));
#17 = ADVANCED_FACE('',(#18),#77,.F.);
#18 = FACE_BOUND('',#19,.F.);
#19 = EDGE_LOOP('',(#20,#30,#38,#46,#54,#62,#70));
#20 = ORIENTED_EDGE('',*,*,#21,.T.);
#21 = EDGE_CURVE('',#22,#24,#26,.T.);
#22 = VERTEX_POINT('',#23);
#23 = CARTESIAN_POINT('',(23.5,26.5,-1.));
#24 = VERTEX_POINT('',#25);
#25 = CARTESIAN_POINT('',(-9.388015895286,26.5,-1.));
#26 = LINE('',#27,#28);
#27 = CARTESIAN_POINT('',(26.5,26.5,-1.));
#28 = VECTOR('',#29,1.);
#29 = DIRECTION('',(-1.,0.,0.));
#30 = ORIENTED_EDGE('',*,*,#31,.T.);
#31 = EDGE_CURVE('',#24,#32,#34,.T.);
#32 = VERTEX_POINT('',#33);
#33 = CARTESIAN_POINT('',(-26.5,9.388015895285,-1.));
#34 = LINE('',#35,#36);
#35 = CARTESIAN_POINT('',(-10.87294013577,25.015075759508,-1.));
#36 = VECTOR('',#37,1.);
#37 = DIRECTION('',(-0.707106781187,-0.707106781187,0.));
#38 = ORIENTED_EDGE('',*,*,#39,.T.);
#39 = EDGE_CURVE('',#32,#40,#42,.T.);
#40 = VERTEX_POINT('',#41);
#41 = CARTESIAN_POINT('',(-26.5,-26.5,-1.));
#42 = LINE('',#43,#44);
#43 = CARTESIAN_POINT('',(-26.5,12.357864376268,-1.));
#44 = VECTOR('',#45,1.);
#45 = DIRECTION('',(0.,-1.,0.));
#46 = ORIENTED_EDGE('',*,*,#47,.T.);
#47 = EDGE_CURVE('',#40,#48,#50,.T.);
#48 = VERTEX_POINT('',#49);
#49 = CARTESIAN_POINT('',(9.388015895288,-26.5,-1.));
#50 = LINE('',#51,#52);
#51 = CARTESIAN_POINT('',(-26.5,-26.5,-1.));
#52 = VECTOR('',#53,1.);
#53 = DIRECTION('',(1.,0.,0.));
#54 = ORIENTED_EDGE('',*,*,#55,.T.);
#55 = EDGE_CURVE('',#48,#56,#58,.T.);
#56 = VERTEX_POINT('',#57);
#57 = CARTESIAN_POINT('',(26.500000000002,-9.388015895279,
    -1.000000000002));
#58 = LINE('',#59,#60);
#59 = CARTESIAN_POINT('',(10.87294013578,-25.0150757595,-1.));
#60 = VECTOR('',#61,1.);
#61 = DIRECTION('',(0.707106781186,0.707106781187,0.));
#62 = ORIENTED_EDGE('',*,*,#63,.T.);
#63 = EDGE_CURVE('',#56,#64,#66,.T.);
#64 = VERTEX_POINT('',#65);
#65 = CARTESIAN_POINT('',(26.5,23.5,-1.));
#66 = LINE('',#67,#68);
#67 = CARTESIAN_POINT('',(26.5,-12.35786437626,-1.));
#68 = VECTOR('',#69,1.);
#69 = DIRECTION('',(0.,1.,0.));
#70 = ORIENTED_EDGE('',*,*,#71,.F.);
#71 = EDGE_CURVE('',#22,#64,#72,.T.);
#72 = CIRCLE('',#73,3.);
#73 = AXIS2_PLACEMENT_3D('',#74,#75,#76);
#74 = CARTESIAN_POINT('',(23.5,23.5,-1.));
#75 = DIRECTION('',(0.,0.,-1.));
#76 = DIRECTION('',(0.,1.,0.));
#77 = PLANE('',#78);
#78 = AXIS2_PLACEMENT_3D('',#79,#80,#81);
#79 = CARTESIAN_POINT('',(-8.566E-14,-7.679E-14,-1.));
#80 = DIRECTION('',(0.,0.,1.));
#81 = DIRECTION('',(1.,0.,0.));
#82 = ADVANCED_FACE('',(#83),#140,.T.);
#83 = FACE_BOUND('',#84,.T.);
#84 = EDGE_LOOP('',(#85,#86,#94,#102,#110,#118,#126,#134));
#85 = ORIENTED_EDGE('',*,*,#21,.T.);
#86 = ORIENTED_EDGE('',*,*,#87,.T.);
#87 = EDGE_CURVE('',#24,#88,#90,.T.);
#88 = VERTEX_POINT('',#89);
#89 = CARTESIAN_POINT('',(-12.35786437626,26.5,1.1));
#90 = LINE('',#91,#92);
#91 = CARTESIAN_POINT('',(-6.088413907092,26.5,-3.333170941068));
#92 = VECTOR('',#93,1.);
#93 = DIRECTION('',(-0.816496580928,0.,0.57735026919));
#94 = ORIENTED_EDGE('',*,*,#95,.T.);
#95 = EDGE_CURVE('',#88,#96,#98,.T.);
#96 = VERTEX_POINT('',#97);
#97 = CARTESIAN_POINT('',(-12.35786437626,26.5,7.7));
#98 = LINE('',#99,#100);
#99 = CARTESIAN_POINT('',(-12.35786437626,26.5,0.));
#100 = VECTOR('',#101,1.);
#101 = DIRECTION('',(0.,0.,1.));
#102 = ORIENTED_EDGE('',*,*,#103,.T.);
#103 = EDGE_CURVE('',#96,#104,#106,.T.);
#104 = VERTEX_POINT('',#105);
#105 = CARTESIAN_POINT('',(-11.22649352637,26.5,8.5));
#106 = LINE('',#107,#108);
#107 = CARTESIAN_POINT('',(-11.78815553031,26.5,8.102844988276));
#108 = VECTOR('',#109,1.);
#109 = DIRECTION('',(0.816496580928,0.,0.57735026919));
#110 = ORIENTED_EDGE('',*,*,#111,.T.);
#111 = EDGE_CURVE('',#104,#112,#114,.T.);
#112 = VERTEX_POINT('',#113);
#113 = CARTESIAN_POINT('',(17.5,26.5,8.5));
#114 = LINE('',#115,#116);
#115 = CARTESIAN_POINT('',(-12.35786437626,26.5,8.5));
#116 = VECTOR('',#117,1.);
#117 = DIRECTION('',(1.,0.,0.));
#118 = ORIENTED_EDGE('',*,*,#119,.F.);
#119 = EDGE_CURVE('',#120,#112,#122,.T.);
#120 = VERTEX_POINT('',#121);
#121 = CARTESIAN_POINT('',(17.5,26.5,0.));
#122 = LINE('',#123,#124);
#123 = CARTESIAN_POINT('',(17.5,26.5,0.));
#124 = VECTOR('',#125,1.);
#125 = DIRECTION('',(0.,0.,1.));
#126 = ORIENTED_EDGE('',*,*,#127,.F.);
#127 = EDGE_CURVE('',#128,#120,#130,.T.);
#128 = VERTEX_POINT('',#129);
#129 = CARTESIAN_POINT('',(23.5,26.5,-1.247033333076E-31));
#130 = LINE('',#131,#132);
#131 = CARTESIAN_POINT('',(26.5,26.5,0.));
#132 = VECTOR('',#133,1.);
#133 = DIRECTION('',(-1.,0.,0.));
#134 = ORIENTED_EDGE('',*,*,#135,.T.);
#135 = EDGE_CURVE('',#128,#22,#136,.T.);
#136 = LINE('',#137,#138);
#137 = CARTESIAN_POINT('',(23.5,26.5,-1.247033333076E-31));
#138 = VECTOR('',#139,1.);
#139 = DIRECTION('',(-0.,-0.,-1.));
#140 = PLANE('',#141);
#141 = AXIS2_PLACEMENT_3D('',#142,#143,#144);
#142 = CARTESIAN_POINT('',(6.280089953489,26.5,2.959022141624));
#143 = DIRECTION('',(0.,1.,0.));
#144 = DIRECTION('',(0.,0.,1.));
#145 = ADVANCED_FACE('',(#146),#165,.T.);
#146 = FACE_BOUND('',#147,.T.);
#147 = EDGE_LOOP('',(#148,#157,#163,#164));
#148 = ORIENTED_EDGE('',*,*,#149,.T.);
#149 = EDGE_CURVE('',#128,#150,#152,.T.);
#150 = VERTEX_POINT('',#151);
#151 = CARTESIAN_POINT('',(26.5,23.5,-1.247033333076E-31));
#152 = CIRCLE('',#153,3.);
#153 = AXIS2_PLACEMENT_3D('',#154,#155,#156);
#154 = CARTESIAN_POINT('',(23.5,23.5,0.));
#155 = DIRECTION('',(0.,0.,-1.));
#156 = DIRECTION('',(0.,1.,0.));
#157 = ORIENTED_EDGE('',*,*,#158,.T.);
#158 = EDGE_CURVE('',#150,#64,#159,.T.);
#159 = LINE('',#160,#161);
#160 = CARTESIAN_POINT('',(26.5,23.5,-1.247033333076E-31));
#161 = VECTOR('',#162,1.);
#162 = DIRECTION('',(-0.,-0.,-1.));
#163 = ORIENTED_EDGE('',*,*,#71,.F.);
#164 = ORIENTED_EDGE('',*,*,#135,.F.);
#165 = CYLINDRICAL_SURFACE('',#166,3.);
#166 = AXIS2_PLACEMENT_3D('',#167,#168,#169);
#167 = CARTESIAN_POINT('',(23.5,23.5,-1.247033333076E-31));
#168 = DIRECTION('',(-0.,-0.,-1.));
#169 = DIRECTION('',(0.,1.,0.));
#170 = ADVANCED_FACE('',(#171),#189,.F.);
#171 = FACE_BOUND('',#172,.T.);
#172 = EDGE_LOOP('',(#173,#174,#175,#183));
#173 = ORIENTED_EDGE('',*,*,#87,.F.);
#174 = ORIENTED_EDGE('',*,*,#31,.T.);
#175 = ORIENTED_EDGE('',*,*,#176,.T.);
#176 = EDGE_CURVE('',#32,#177,#179,.T.);
#177 = VERTEX_POINT('',#178);
#178 = CARTESIAN_POINT('',(-26.5,12.357864376268,1.1));
#179 = LINE('',#180,#181);
#180 = CARTESIAN_POINT('',(-26.5,10.725235098019,-5.444323381443E-02));
#181 = VECTOR('',#182,1.);
#182 = DIRECTION('',(0.,0.816496580928,0.57735026919));
#183 = ORIENTED_EDGE('',*,*,#184,.F.);
#184 = EDGE_CURVE('',#88,#177,#185,.T.);
#185 = LINE('',#186,#187);
#186 = CARTESIAN_POINT('',(-12.35786437626,26.5,1.1));
#187 = VECTOR('',#188,1.);
#188 = DIRECTION('',(-0.707106781187,-0.707106781187,0.));
#189 = PLANE('',#190);
#190 = AXIS2_PLACEMENT_3D('',#191,#192,#193);
#191 = CARTESIAN_POINT('',(-11.61540225602,25.757537879754,5.E-02));
#192 = DIRECTION('',(0.5,-0.5,0.707106781187));
#193 = DIRECTION('',(0.707106781187,0.707106781187,1.282307593442E-14));
#194 = ADVANCED_FACE('',(#195),#245,.T.);
#195 = FACE_BOUND('',#196,.T.);
#196 = EDGE_LOOP('',(#197,#198,#199,#207,#215,#223,#231,#239));
#197 = ORIENTED_EDGE('',*,*,#63,.T.);
#198 = ORIENTED_EDGE('',*,*,#158,.F.);
#199 = ORIENTED_EDGE('',*,*,#200,.F.);
#200 = EDGE_CURVE('',#201,#150,#203,.T.);
#201 = VERTEX_POINT('',#202);
#202 = CARTESIAN_POINT('',(26.5,22.5,0.));
#203 = LINE('',#204,#205);
#204 = CARTESIAN_POINT('',(26.5,-12.35786437626,0.));
#205 = VECTOR('',#206,1.);
#206 = DIRECTION('',(0.,1.,0.));
#207 = ORIENTED_EDGE('',*,*,#208,.T.);
#208 = EDGE_CURVE('',#201,#209,#211,.T.);
#209 = VERTEX_POINT('',#210);
#210 = CARTESIAN_POINT('',(26.5,22.5,8.5));
#211 = LINE('',#212,#213);
#212 = CARTESIAN_POINT('',(26.5,22.5,0.));
#213 = VECTOR('',#214,1.);
#214 = DIRECTION('',(0.,0.,1.));
#215 = ORIENTED_EDGE('',*,*,#216,.T.);
#216 = EDGE_CURVE('',#209,#217,#219,.T.);
#217 = VERTEX_POINT('',#218);
#218 = CARTESIAN_POINT('',(26.499999999999,-11.22649352637,
    8.499999999999));
#219 = LINE('',#220,#221);
#220 = CARTESIAN_POINT('',(26.5,22.5,8.5));
#221 = VECTOR('',#222,1.);
#222 = DIRECTION('',(0.,-1.,0.));
#223 = ORIENTED_EDGE('',*,*,#224,.T.);
#224 = EDGE_CURVE('',#217,#225,#227,.T.);
#225 = VERTEX_POINT('',#226);
#226 = CARTESIAN_POINT('',(26.5,-12.35786437626,7.699999999999));
#227 = LINE('',#228,#229);
#228 = CARTESIAN_POINT('',(26.5,-11.53810299961,8.279658828389));
#229 = VECTOR('',#230,1.);
#230 = DIRECTION('',(1.543397501679E-32,-0.816496580928,-0.57735026919)
  );
#231 = ORIENTED_EDGE('',*,*,#232,.F.);
#232 = EDGE_CURVE('',#233,#225,#235,.T.);
#233 = VERTEX_POINT('',#234);
#234 = CARTESIAN_POINT('',(26.499999999998,-12.35786437626,
    1.099999999998));
#235 = LINE('',#236,#237);
#236 = CARTESIAN_POINT('',(26.5,-12.35786437626,0.));
#237 = VECTOR('',#238,1.);
#238 = DIRECTION('',(0.,0.,1.));
#239 = ORIENTED_EDGE('',*,*,#240,.F.);
#240 = EDGE_CURVE('',#56,#233,#241,.T.);
#241 = LINE('',#242,#243);
#242 = CARTESIAN_POINT('',(26.5,-10.75955688334,-3.017406666774E-02));
#243 = VECTOR('',#244,1.);
#244 = DIRECTION('',(-3.256436035252E-32,-0.816496580928,0.57735026919)
  );
#245 = PLANE('',#246);
#246 = AXIS2_PLACEMENT_3D('',#247,#248,#249);
#247 = CARTESIAN_POINT('',(26.5,6.719522097032,3.398454285166));
#248 = DIRECTION('',(1.,-1.049017579245E-32,4.156777776919E-32));
#249 = DIRECTION('',(-4.156777776919E-32,0.,1.));
#250 = ADVANCED_FACE('',(#251),#285,.T.);
#251 = FACE_BOUND('',#252,.T.);
#252 = EDGE_LOOP('',(#253,#261,#262,#263,#271,#279));
#253 = ORIENTED_EDGE('',*,*,#254,.T.);
#254 = EDGE_CURVE('',#255,#177,#257,.T.);
#255 = VERTEX_POINT('',#256);
#256 = CARTESIAN_POINT('',(-26.5,12.357864376269,7.7));
#257 = LINE('',#258,#259);
#258 = CARTESIAN_POINT('',(-26.5,12.357864376268,0.));
#259 = VECTOR('',#260,1.);
#260 = DIRECTION('',(-0.,-0.,-1.));
#261 = ORIENTED_EDGE('',*,*,#176,.F.);
#262 = ORIENTED_EDGE('',*,*,#39,.T.);
#263 = ORIENTED_EDGE('',*,*,#264,.F.);
#264 = EDGE_CURVE('',#265,#40,#267,.T.);
#265 = VERTEX_POINT('',#266);
#266 = CARTESIAN_POINT('',(-26.5,-26.5,8.5));
#267 = LINE('',#268,#269);
#268 = CARTESIAN_POINT('',(-26.5,-26.5,0.));
#269 = VECTOR('',#270,1.);
#270 = DIRECTION('',(-0.,-0.,-1.));
#271 = ORIENTED_EDGE('',*,*,#272,.T.);
#272 = EDGE_CURVE('',#265,#273,#275,.T.);
#273 = VERTEX_POINT('',#274);
#274 = CARTESIAN_POINT('',(-26.5,11.22649352637,8.5));
#275 = LINE('',#276,#277);
#276 = CARTESIAN_POINT('',(-26.5,-26.5,8.5));
#277 = VECTOR('',#278,1.);
#278 = DIRECTION('',(0.,1.,0.));
#279 = ORIENTED_EDGE('',*,*,#280,.F.);
#280 = EDGE_CURVE('',#255,#273,#281,.T.);
#281 = LINE('',#282,#283);
#282 = CARTESIAN_POINT('',(-26.5,6.624015767137,11.754443233814));
#283 = VECTOR('',#284,1.);
#284 = DIRECTION('',(0.,-0.816496580928,0.57735026919));
#285 = PLANE('',#286);
#286 = AXIS2_PLACEMENT_3D('',#287,#288,#289);
#287 = CARTESIAN_POINT('',(-26.5,-7.071067811866,3.75));
#288 = DIRECTION('',(-1.,-0.,-0.));
#289 = DIRECTION('',(0.,0.,-1.));
#290 = ADVANCED_FACE('',(#291),#309,.F.);
#291 = FACE_BOUND('',#292,.T.);
#292 = EDGE_LOOP('',(#293,#301,#302,#303));
#293 = ORIENTED_EDGE('',*,*,#294,.F.);
#294 = EDGE_CURVE('',#48,#295,#297,.T.);
#295 = VERTEX_POINT('',#296);
#296 = CARTESIAN_POINT('',(12.357864376272,-26.49999999999,1.1));
#297 = LINE('',#298,#299);
#298 = CARTESIAN_POINT('',(6.011189890111,-26.5,-3.387776567148));
#299 = VECTOR('',#300,1.);
#300 = DIRECTION('',(0.816496580928,0.,0.57735026919));
#301 = ORIENTED_EDGE('',*,*,#55,.T.);
#302 = ORIENTED_EDGE('',*,*,#240,.T.);
#303 = ORIENTED_EDGE('',*,*,#304,.F.);
#304 = EDGE_CURVE('',#295,#233,#305,.T.);
#305 = LINE('',#306,#307);
#306 = CARTESIAN_POINT('',(12.357864376272,-26.49999999999,1.1));
#307 = VECTOR('',#308,1.);
#308 = DIRECTION('',(0.707106781186,0.707106781187,0.));
#309 = PLANE('',#310);
#310 = AXIS2_PLACEMENT_3D('',#311,#312,#313);
#311 = CARTESIAN_POINT('',(11.615402256026,-25.75753787975,5.E-02));
#312 = DIRECTION('',(-0.5,0.5,0.707106781187));
#313 = DIRECTION('',(-0.707106781186,-0.707106781187,9.889311591849E-14)
  );
#314 = ADVANCED_FACE('',(#315),#342,.T.);
#315 = FACE_BOUND('',#316,.T.);
#316 = EDGE_LOOP('',(#317,#325,#333,#339,#340,#341));
#317 = ORIENTED_EDGE('',*,*,#318,.F.);
#318 = EDGE_CURVE('',#319,#295,#321,.T.);
#319 = VERTEX_POINT('',#320);
#320 = CARTESIAN_POINT('',(12.357864376272,-26.49999999999,7.7));
#321 = LINE('',#322,#323);
#322 = CARTESIAN_POINT('',(12.357864376273,-26.5,0.));
#323 = VECTOR('',#324,1.);
#324 = DIRECTION('',(-0.,-0.,-1.));
#325 = ORIENTED_EDGE('',*,*,#326,.F.);
#326 = EDGE_CURVE('',#327,#319,#329,.T.);
#327 = VERTEX_POINT('',#328);
#328 = CARTESIAN_POINT('',(11.226493526372,-26.5,8.5));
#329 = LINE('',#330,#331);
#330 = CARTESIAN_POINT('',(6.624015767139,-26.5,11.754443233815));
#331 = VECTOR('',#332,1.);
#332 = DIRECTION('',(0.816496580928,0.,-0.57735026919));
#333 = ORIENTED_EDGE('',*,*,#334,.T.);
#334 = EDGE_CURVE('',#327,#265,#335,.T.);
#335 = LINE('',#336,#337);
#336 = CARTESIAN_POINT('',(12.357864376269,-26.5,8.5));
#337 = VECTOR('',#338,1.);
#338 = DIRECTION('',(-1.,0.,0.));
#339 = ORIENTED_EDGE('',*,*,#264,.T.);
#340 = ORIENTED_EDGE('',*,*,#47,.T.);
#341 = ORIENTED_EDGE('',*,*,#294,.T.);
#342 = PLANE('',#343);
#343 = AXIS2_PLACEMENT_3D('',#344,#345,#346);
#344 = CARTESIAN_POINT('',(-7.071067811865,-26.5,3.75));
#345 = DIRECTION('',(-0.,-1.,-0.));
#346 = DIRECTION('',(0.,0.,-1.));
#347 = ADVANCED_FACE('',(#348),#429,.T.);
#348 = FACE_BOUND('',#349,.T.);
#349 = EDGE_LOOP('',(#350,#351,#360,#368,#377,#386,#395,#404,#412,#421,
    #427,#428));
#350 = ORIENTED_EDGE('',*,*,#127,.T.);
#351 = ORIENTED_EDGE('',*,*,#352,.F.);
#352 = EDGE_CURVE('',#353,#120,#355,.T.);
#353 = VERTEX_POINT('',#354);
#354 = CARTESIAN_POINT('',(17.5,25.,0.));
#355 = CIRCLE('',#356,0.75);
#356 = AXIS2_PLACEMENT_3D('',#357,#358,#359);
#357 = CARTESIAN_POINT('',(17.5,25.75,0.));
#358 = DIRECTION('',(0.,0.,1.));
#359 = DIRECTION('',(1.,0.,0.));
#360 = ORIENTED_EDGE('',*,*,#361,.F.);
#361 = EDGE_CURVE('',#362,#353,#364,.T.);
#362 = VERTEX_POINT('',#363);
#363 = CARTESIAN_POINT('',(1.530808498934E-15,25.,0.));
#364 = LINE('',#365,#366);
#365 = CARTESIAN_POINT('',(1.530808498934E-15,25.,0.));
#366 = VECTOR('',#367,1.);
#367 = DIRECTION('',(1.,0.,0.));
#368 = ORIENTED_EDGE('',*,*,#369,.T.);
#369 = EDGE_CURVE('',#362,#370,#372,.T.);
#370 = VERTEX_POINT('',#371);
#371 = CARTESIAN_POINT('',(24.932250293802,1.839264876848,0.));
#372 = CIRCLE('',#373,25.);
#373 = AXIS2_PLACEMENT_3D('',#374,#375,#376);
#374 = CARTESIAN_POINT('',(9.385159838021E-32,1.38888790147E-35,0.));
#375 = DIRECTION('',(0.,0.,1.));
#376 = DIRECTION('',(1.,0.,0.));
#377 = ORIENTED_EDGE('',*,*,#378,.T.);
#378 = EDGE_CURVE('',#370,#379,#381,.T.);
#379 = VERTEX_POINT('',#380);
#380 = CARTESIAN_POINT('',(15.260781482633,17.36453164371,0.));
#381 = CIRCLE('',#382,25.087635652755);
#382 = AXIS2_PLACEMENT_3D('',#383,#384,#385);
#383 = CARTESIAN_POINT('',(0.267994699059,-2.750283968363,0.));
#384 = DIRECTION('',(0.,0.,1.));
#385 = DIRECTION('',(1.,0.,0.));
#386 = ORIENTED_EDGE('',*,*,#387,.T.);
#387 = EDGE_CURVE('',#379,#388,#390,.T.);
#388 = VERTEX_POINT('',#389);
#389 = CARTESIAN_POINT('',(1.988503546699E-16,21.,0.));
#390 = CIRCLE('',#391,32.782781595928);
#391 = AXIS2_PLACEMENT_3D('',#392,#393,#394);
#392 = CARTESIAN_POINT('',(0.254040342487,-11.78179727639,0.));
#393 = DIRECTION('',(0.,0.,1.));
#394 = DIRECTION('',(1.,0.,0.));
#395 = ORIENTED_EDGE('',*,*,#396,.T.);
#396 = EDGE_CURVE('',#388,#397,#399,.T.);
#397 = VERTEX_POINT('',#398);
#398 = CARTESIAN_POINT('',(-10.79946706945,18.010316793874,0.));
#399 = CIRCLE('',#400,21.);
#400 = AXIS2_PLACEMENT_3D('',#401,#402,#403);
#401 = CARTESIAN_POINT('',(9.385159838021E-32,1.38888790147E-35,0.));
#402 = DIRECTION('',(0.,0.,1.));
#403 = DIRECTION('',(1.,0.,0.));
#404 = ORIENTED_EDGE('',*,*,#405,.F.);
#405 = EDGE_CURVE('',#406,#397,#408,.T.);
#406 = VERTEX_POINT('',#407);
#407 = CARTESIAN_POINT('',(-13.48623331343,18.010316793874,0.));
#408 = LINE('',#409,#410);
#409 = CARTESIAN_POINT('',(-13.48623331343,18.010316793874,0.));
#410 = VECTOR('',#411,1.);
#411 = DIRECTION('',(1.,0.,0.));
#412 = ORIENTED_EDGE('',*,*,#413,.F.);
#413 = EDGE_CURVE('',#414,#406,#416,.T.);
#414 = VERTEX_POINT('',#415);
#415 = CARTESIAN_POINT('',(1.377727649041E-15,22.5,0.));
#416 = CIRCLE('',#417,22.5);
#417 = AXIS2_PLACEMENT_3D('',#418,#419,#420);
#418 = CARTESIAN_POINT('',(9.385159838021E-32,1.38888790147E-35,0.));
#419 = DIRECTION('',(0.,0.,1.));
#420 = DIRECTION('',(1.,0.,0.));
#421 = ORIENTED_EDGE('',*,*,#422,.T.);
#422 = EDGE_CURVE('',#414,#201,#423,.T.);
#423 = LINE('',#424,#425);
#424 = CARTESIAN_POINT('',(1.377727649041E-15,22.5,0.));
#425 = VECTOR('',#426,1.);
#426 = DIRECTION('',(1.,0.,0.));
#427 = ORIENTED_EDGE('',*,*,#200,.T.);
#428 = ORIENTED_EDGE('',*,*,#149,.F.);
#429 = PLANE('',#430);
#430 = AXIS2_PLACEMENT_3D('',#431,#432,#433);
#431 = CARTESIAN_POINT('',(-8.566E-14,-7.679E-14,0.));
#432 = DIRECTION('',(0.,0.,1.));
#433 = DIRECTION('',(1.,0.,0.));
#434 = ADVANCED_FACE('',(#435),#446,.T.);
#435 = FACE_BOUND('',#436,.T.);
#436 = EDGE_LOOP('',(#437,#438,#444,#445));
#437 = ORIENTED_EDGE('',*,*,#254,.F.);
#438 = ORIENTED_EDGE('',*,*,#439,.T.);
#439 = EDGE_CURVE('',#255,#96,#440,.T.);
#440 = LINE('',#441,#442);
#441 = CARTESIAN_POINT('',(-26.5,12.357864376269,7.7));
#442 = VECTOR('',#443,1.);
#443 = DIRECTION('',(0.707106781187,0.707106781187,0.));
#444 = ORIENTED_EDGE('',*,*,#95,.F.);
#445 = ORIENTED_EDGE('',*,*,#184,.T.);
#446 = PLANE('',#447);
#447 = AXIS2_PLACEMENT_3D('',#448,#449,#450);
#448 = CARTESIAN_POINT('',(-19.42893218813,19.428932188134,3.75));
#449 = DIRECTION('',(-0.707106781187,0.707106781187,-3.586092117359E-15)
  );
#450 = DIRECTION('',(-0.707106781187,-0.707106781187,0.));
#451 = ADVANCED_FACE('',(#452),#471,.T.);
#452 = FACE_BOUND('',#453,.F.);
#453 = EDGE_LOOP('',(#454,#462,#469,#470));
#454 = ORIENTED_EDGE('',*,*,#455,.T.);
#455 = EDGE_CURVE('',#353,#456,#458,.T.);
#456 = VERTEX_POINT('',#457);
#457 = CARTESIAN_POINT('',(17.5,25.,8.5));
#458 = LINE('',#459,#460);
#459 = CARTESIAN_POINT('',(17.5,25.,0.));
#460 = VECTOR('',#461,1.);
#461 = DIRECTION('',(0.,0.,1.));
#462 = ORIENTED_EDGE('',*,*,#463,.T.);
#463 = EDGE_CURVE('',#456,#112,#464,.T.);
#464 = CIRCLE('',#465,0.75);
#465 = AXIS2_PLACEMENT_3D('',#466,#467,#468);
#466 = CARTESIAN_POINT('',(17.5,25.75,8.5));
#467 = DIRECTION('',(0.,0.,1.));
#468 = DIRECTION('',(1.,0.,0.));
#469 = ORIENTED_EDGE('',*,*,#119,.F.);
#470 = ORIENTED_EDGE('',*,*,#352,.F.);
#471 = CYLINDRICAL_SURFACE('',#472,0.75);
#472 = AXIS2_PLACEMENT_3D('',#473,#474,#475);
#473 = CARTESIAN_POINT('',(17.5,25.75,0.));
#474 = DIRECTION('',(-0.,-0.,-1.));
#475 = DIRECTION('',(1.,0.,0.));
#476 = ADVANCED_FACE('',(#477),#488,.T.);
#477 = FACE_BOUND('',#478,.F.);
#478 = EDGE_LOOP('',(#479,#480,#481,#482));
#479 = ORIENTED_EDGE('',*,*,#280,.F.);
#480 = ORIENTED_EDGE('',*,*,#439,.T.);
#481 = ORIENTED_EDGE('',*,*,#103,.T.);
#482 = ORIENTED_EDGE('',*,*,#483,.F.);
#483 = EDGE_CURVE('',#273,#104,#484,.T.);
#484 = LINE('',#485,#486);
#485 = CARTESIAN_POINT('',(-25.93431457505,11.79217895132,8.5));
#486 = VECTOR('',#487,1.);
#487 = DIRECTION('',(0.707106781187,0.707106781187,0.));
#488 = PLANE('',#489);
#489 = AXIS2_PLACEMENT_3D('',#490,#491,#492);
#490 = CARTESIAN_POINT('',(-26.21715728752,12.075021663794,8.1));
#491 = DIRECTION('',(-0.5,0.5,0.707106781187));
#492 = DIRECTION('',(-0.707106781187,-0.707106781187,-7.771561172376E-15
    ));
#493 = ADVANCED_FACE('',(#494,#575,#586),#597,.T.);
#494 = FACE_BOUND('',#495,.T.);
#495 = EDGE_LOOP('',(#496,#497,#503,#504,#512,#521,#529,#538,#547,#556,
    #565,#571,#572,#573,#574));
#496 = ORIENTED_EDGE('',*,*,#334,.F.);
#497 = ORIENTED_EDGE('',*,*,#498,.T.);
#498 = EDGE_CURVE('',#327,#217,#499,.T.);
#499 = LINE('',#500,#501);
#500 = CARTESIAN_POINT('',(11.792178951321,-25.93431457505,8.5));
#501 = VECTOR('',#502,1.);
#502 = DIRECTION('',(0.707106781187,0.707106781187,0.));
#503 = ORIENTED_EDGE('',*,*,#216,.F.);
#504 = ORIENTED_EDGE('',*,*,#505,.F.);
#505 = EDGE_CURVE('',#506,#209,#508,.T.);
#506 = VERTEX_POINT('',#507);
#507 = CARTESIAN_POINT('',(1.377727649041E-15,22.5,8.5));
#508 = LINE('',#509,#510);
#509 = CARTESIAN_POINT('',(1.377727649041E-15,22.5,8.5));
#510 = VECTOR('',#511,1.);
#511 = DIRECTION('',(1.,0.,0.));
#512 = ORIENTED_EDGE('',*,*,#513,.T.);
#513 = EDGE_CURVE('',#506,#514,#516,.T.);
#514 = VERTEX_POINT('',#515);
#515 = CARTESIAN_POINT('',(-13.48623331343,18.010316793874,8.5));
#516 = CIRCLE('',#517,22.5);
#517 = AXIS2_PLACEMENT_3D('',#518,#519,#520);
#518 = CARTESIAN_POINT('',(9.385159838021E-32,1.38888790147E-35,8.5));
#519 = DIRECTION('',(0.,0.,1.));
#520 = DIRECTION('',(1.,0.,0.));
#521 = ORIENTED_EDGE('',*,*,#522,.T.);
#522 = EDGE_CURVE('',#514,#523,#525,.T.);
#523 = VERTEX_POINT('',#524);
#524 = CARTESIAN_POINT('',(-10.79946706945,18.010316793874,8.5));
#525 = LINE('',#526,#527);
#526 = CARTESIAN_POINT('',(-13.48623331343,18.010316793874,8.5));
#527 = VECTOR('',#528,1.);
#528 = DIRECTION('',(1.,0.,0.));
#529 = ORIENTED_EDGE('',*,*,#530,.F.);
#530 = EDGE_CURVE('',#531,#523,#533,.T.);
#531 = VERTEX_POINT('',#532);
#532 = CARTESIAN_POINT('',(1.988503546699E-16,21.,8.5));
#533 = CIRCLE('',#534,21.);
#534 = AXIS2_PLACEMENT_3D('',#535,#536,#537);
#535 = CARTESIAN_POINT('',(9.385159838021E-32,1.38888790147E-35,8.5));
#536 = DIRECTION('',(0.,0.,1.));
#537 = DIRECTION('',(1.,0.,0.));
#538 = ORIENTED_EDGE('',*,*,#539,.F.);
#539 = EDGE_CURVE('',#540,#531,#542,.T.);
#540 = VERTEX_POINT('',#541);
#541 = CARTESIAN_POINT('',(15.260781482633,17.36453164371,8.5));
#542 = CIRCLE('',#543,32.782781595928);
#543 = AXIS2_PLACEMENT_3D('',#544,#545,#546);
#544 = CARTESIAN_POINT('',(0.254040342487,-11.78179727639,8.5));
#545 = DIRECTION('',(0.,0.,1.));
#546 = DIRECTION('',(1.,0.,0.));
#547 = ORIENTED_EDGE('',*,*,#548,.F.);
#548 = EDGE_CURVE('',#549,#540,#551,.T.);
#549 = VERTEX_POINT('',#550);
#550 = CARTESIAN_POINT('',(24.932250293802,1.839264876848,8.5));
#551 = CIRCLE('',#552,25.087635652755);
#552 = AXIS2_PLACEMENT_3D('',#553,#554,#555);
#553 = CARTESIAN_POINT('',(0.267994699059,-2.750283968363,8.5));
#554 = DIRECTION('',(0.,0.,1.));
#555 = DIRECTION('',(1.,0.,0.));
#556 = ORIENTED_EDGE('',*,*,#557,.F.);
#557 = EDGE_CURVE('',#558,#549,#560,.T.);
#558 = VERTEX_POINT('',#559);
#559 = CARTESIAN_POINT('',(1.530808498934E-15,25.,8.5));
#560 = CIRCLE('',#561,25.);
#561 = AXIS2_PLACEMENT_3D('',#562,#563,#564);
#562 = CARTESIAN_POINT('',(9.385159838021E-32,1.38888790147E-35,8.5));
#563 = DIRECTION('',(0.,0.,1.));
#564 = DIRECTION('',(1.,0.,0.));
#565 = ORIENTED_EDGE('',*,*,#566,.T.);
#566 = EDGE_CURVE('',#558,#456,#567,.T.);
#567 = LINE('',#568,#569);
#568 = CARTESIAN_POINT('',(1.530808498934E-15,25.,8.5));
#569 = VECTOR('',#570,1.);
#570 = DIRECTION('',(1.,0.,0.));
#571 = ORIENTED_EDGE('',*,*,#463,.T.);
#572 = ORIENTED_EDGE('',*,*,#111,.F.);
#573 = ORIENTED_EDGE('',*,*,#483,.F.);
#574 = ORIENTED_EDGE('',*,*,#272,.F.);
#575 = FACE_BOUND('',#576,.T.);
#576 = EDGE_LOOP('',(#577));
#577 = ORIENTED_EDGE('',*,*,#578,.F.);
#578 = EDGE_CURVE('',#579,#579,#581,.T.);
#579 = VERTEX_POINT('',#580);
#580 = CARTESIAN_POINT('',(24.644234216732,18.122463014207,8.5));
#581 = CIRCLE('',#582,3.3);
#582 = AXIS2_PLACEMENT_3D('',#583,#584,#585);
#583 = CARTESIAN_POINT('',(21.344234216732,18.122463014207,8.5));
#584 = DIRECTION('',(0.,0.,1.));
#585 = DIRECTION('',(1.,0.,0.));
#586 = FACE_BOUND('',#587,.T.);
#587 = EDGE_LOOP('',(#588));
#588 = ORIENTED_EDGE('',*,*,#589,.F.);
#589 = EDGE_CURVE('',#590,#590,#592,.T.);
#590 = VERTEX_POINT('',#591);
#591 = CARTESIAN_POINT('',(-17.91320343559,-21.21320343559,8.5));
#592 = CIRCLE('',#593,3.3);
#593 = AXIS2_PLACEMENT_3D('',#594,#595,#596);
#594 = CARTESIAN_POINT('',(-21.21320343559,-21.21320343559,8.5));
#595 = DIRECTION('',(0.,0.,1.));
#596 = DIRECTION('',(1.,0.,0.));
#597 = PLANE('',#598);
#598 = AXIS2_PLACEMENT_3D('',#599,#600,#601);
#599 = CARTESIAN_POINT('',(0.368588008509,3.193938075633,8.5));
#600 = DIRECTION('',(0.,0.,1.));
#601 = DIRECTION('',(1.,0.,0.));
#602 = ADVANCED_FACE('',(#603),#614,.T.);
#603 = FACE_BOUND('',#604,.T.);
#604 = EDGE_LOOP('',(#605,#606,#607,#608));
#605 = ORIENTED_EDGE('',*,*,#318,.T.);
#606 = ORIENTED_EDGE('',*,*,#304,.T.);
#607 = ORIENTED_EDGE('',*,*,#232,.T.);
#608 = ORIENTED_EDGE('',*,*,#609,.F.);
#609 = EDGE_CURVE('',#319,#225,#610,.T.);
#610 = LINE('',#611,#612);
#611 = CARTESIAN_POINT('',(12.35786437627,-26.5,7.7));
#612 = VECTOR('',#613,1.);
#613 = DIRECTION('',(0.707106781187,0.707106781187,0.));
#614 = PLANE('',#615);
#615 = AXIS2_PLACEMENT_3D('',#616,#617,#618);
#616 = CARTESIAN_POINT('',(19.428932188135,-19.42893218813,3.75));
#617 = DIRECTION('',(0.707106781187,-0.707106781186,-6.147586486872E-15)
  );
#618 = DIRECTION('',(0.707106781186,0.707106781187,3.944304526105E-31));
#619 = ADVANCED_FACE('',(#620),#631,.T.);
#620 = FACE_BOUND('',#621,.T.);
#621 = EDGE_LOOP('',(#622,#628,#629,#630));
#622 = ORIENTED_EDGE('',*,*,#623,.T.);
#623 = EDGE_CURVE('',#414,#506,#624,.T.);
#624 = LINE('',#625,#626);
#625 = CARTESIAN_POINT('',(1.377727649041E-15,22.5,0.));
#626 = VECTOR('',#627,1.);
#627 = DIRECTION('',(0.,0.,1.));
#628 = ORIENTED_EDGE('',*,*,#505,.T.);
#629 = ORIENTED_EDGE('',*,*,#208,.F.);
#630 = ORIENTED_EDGE('',*,*,#422,.F.);
#631 = PLANE('',#632);
#632 = AXIS2_PLACEMENT_3D('',#633,#634,#635);
#633 = CARTESIAN_POINT('',(1.377727649041E-15,22.5,0.));
#634 = DIRECTION('',(0.,1.,0.));
#635 = DIRECTION('',(1.,0.,0.));
#636 = ADVANCED_FACE('',(#637),#643,.T.);
#637 = FACE_BOUND('',#638,.F.);
#638 = EDGE_LOOP('',(#639,#640,#641,#642));
#639 = ORIENTED_EDGE('',*,*,#326,.F.);
#640 = ORIENTED_EDGE('',*,*,#498,.T.);
#641 = ORIENTED_EDGE('',*,*,#224,.T.);
#642 = ORIENTED_EDGE('',*,*,#609,.F.);
#643 = PLANE('',#644);
#644 = AXIS2_PLACEMENT_3D('',#645,#646,#647);
#645 = CARTESIAN_POINT('',(12.075021663795,-26.21715728752,8.1));
#646 = DIRECTION('',(0.5,-0.5,0.707106781187));
#647 = DIRECTION('',(-0.707106781187,-0.707106781187,5.870304242706E-14)
  );
#648 = ADVANCED_FACE('',(#649),#660,.F.);
#649 = FACE_BOUND('',#650,.F.);
#650 = EDGE_LOOP('',(#651,#657,#658,#659));
#651 = ORIENTED_EDGE('',*,*,#652,.T.);
#652 = EDGE_CURVE('',#362,#558,#653,.T.);
#653 = LINE('',#654,#655);
#654 = CARTESIAN_POINT('',(1.530808498934E-15,25.,0.));
#655 = VECTOR('',#656,1.);
#656 = DIRECTION('',(0.,0.,1.));
#657 = ORIENTED_EDGE('',*,*,#566,.T.);
#658 = ORIENTED_EDGE('',*,*,#455,.F.);
#659 = ORIENTED_EDGE('',*,*,#361,.F.);
#660 = PLANE('',#661);
#661 = AXIS2_PLACEMENT_3D('',#662,#663,#664);
#662 = CARTESIAN_POINT('',(1.530808498934E-15,25.,0.));
#663 = DIRECTION('',(0.,1.,0.));
#664 = DIRECTION('',(1.,0.,0.));
#665 = ADVANCED_FACE('',(#666),#677,.F.);
#666 = FACE_BOUND('',#667,.T.);
#667 = EDGE_LOOP('',(#668,#669,#670,#676));
#668 = ORIENTED_EDGE('',*,*,#652,.T.);
#669 = ORIENTED_EDGE('',*,*,#557,.T.);
#670 = ORIENTED_EDGE('',*,*,#671,.F.);
#671 = EDGE_CURVE('',#370,#549,#672,.T.);
#672 = LINE('',#673,#674);
#673 = CARTESIAN_POINT('',(24.932250293802,1.839264876848,0.));
#674 = VECTOR('',#675,1.);
#675 = DIRECTION('',(0.,0.,1.));
#676 = ORIENTED_EDGE('',*,*,#369,.F.);
#677 = CYLINDRICAL_SURFACE('',#678,25.);
#678 = AXIS2_PLACEMENT_3D('',#679,#680,#681);
#679 = CARTESIAN_POINT('',(9.385159838021E-32,1.38888790147E-35,0.));
#680 = DIRECTION('',(-0.,-0.,-1.));
#681 = DIRECTION('',(1.,0.,0.));
#682 = ADVANCED_FACE('',(#683),#694,.T.);
#683 = FACE_BOUND('',#684,.F.);
#684 = EDGE_LOOP('',(#685,#686,#687,#693));
#685 = ORIENTED_EDGE('',*,*,#623,.T.);
#686 = ORIENTED_EDGE('',*,*,#513,.T.);
#687 = ORIENTED_EDGE('',*,*,#688,.F.);
#688 = EDGE_CURVE('',#406,#514,#689,.T.);
#689 = LINE('',#690,#691);
#690 = CARTESIAN_POINT('',(-13.48623331343,18.010316793874,0.));
#691 = VECTOR('',#692,1.);
#692 = DIRECTION('',(0.,0.,1.));
#693 = ORIENTED_EDGE('',*,*,#413,.F.);
#694 = CYLINDRICAL_SURFACE('',#695,22.5);
#695 = AXIS2_PLACEMENT_3D('',#696,#697,#698);
#696 = CARTESIAN_POINT('',(9.385159838021E-32,1.38888790147E-35,0.));
#697 = DIRECTION('',(-0.,-0.,-1.));
#698 = DIRECTION('',(1.,0.,0.));
#699 = ADVANCED_FACE('',(#700),#711,.F.);
#700 = FACE_BOUND('',#701,.T.);
#701 = EDGE_LOOP('',(#702,#703,#704,#710));
#702 = ORIENTED_EDGE('',*,*,#671,.T.);
#703 = ORIENTED_EDGE('',*,*,#548,.T.);
#704 = ORIENTED_EDGE('',*,*,#705,.F.);
#705 = EDGE_CURVE('',#379,#540,#706,.T.);
#706 = LINE('',#707,#708);
#707 = CARTESIAN_POINT('',(15.260781482633,17.36453164371,0.));
#708 = VECTOR('',#709,1.);
#709 = DIRECTION('',(0.,0.,1.));
#710 = ORIENTED_EDGE('',*,*,#378,.F.);
#711 = CYLINDRICAL_SURFACE('',#712,25.087635652755);
#712 = AXIS2_PLACEMENT_3D('',#713,#714,#715);
#713 = CARTESIAN_POINT('',(0.267994699059,-2.750283968363,0.));
#714 = DIRECTION('',(-0.,-0.,-1.));
#715 = DIRECTION('',(1.,0.,0.));
#716 = ADVANCED_FACE('',(#717),#728,.F.);
#717 = FACE_BOUND('',#718,.F.);
#718 = EDGE_LOOP('',(#719,#720,#721,#727));
#719 = ORIENTED_EDGE('',*,*,#688,.T.);
#720 = ORIENTED_EDGE('',*,*,#522,.T.);
#721 = ORIENTED_EDGE('',*,*,#722,.F.);
#722 = EDGE_CURVE('',#397,#523,#723,.T.);
#723 = LINE('',#724,#725);
#724 = CARTESIAN_POINT('',(-10.79946706945,18.010316793874,0.));
#725 = VECTOR('',#726,1.);
#726 = DIRECTION('',(0.,0.,1.));
#727 = ORIENTED_EDGE('',*,*,#405,.F.);
#728 = PLANE('',#729);
#729 = AXIS2_PLACEMENT_3D('',#730,#731,#732);
#730 = CARTESIAN_POINT('',(-13.48623331343,18.010316793874,0.));
#731 = DIRECTION('',(0.,1.,0.));
#732 = DIRECTION('',(1.,0.,0.));
#733 = ADVANCED_FACE('',(#734),#745,.F.);
#734 = FACE_BOUND('',#735,.T.);
#735 = EDGE_LOOP('',(#736,#737,#738,#744));
#736 = ORIENTED_EDGE('',*,*,#705,.T.);
#737 = ORIENTED_EDGE('',*,*,#539,.T.);
#738 = ORIENTED_EDGE('',*,*,#739,.F.);
#739 = EDGE_CURVE('',#388,#531,#740,.T.);
#740 = LINE('',#741,#742);
#741 = CARTESIAN_POINT('',(1.988503546699E-16,21.,0.));
#742 = VECTOR('',#743,1.);
#743 = DIRECTION('',(0.,0.,1.));
#744 = ORIENTED_EDGE('',*,*,#387,.F.);
#745 = CYLINDRICAL_SURFACE('',#746,32.782781595928);
#746 = AXIS2_PLACEMENT_3D('',#747,#748,#749);
#747 = CARTESIAN_POINT('',(0.254040342487,-11.78179727639,0.));
#748 = DIRECTION('',(-0.,-0.,-1.));
#749 = DIRECTION('',(1.,0.,0.));
#750 = ADVANCED_FACE('',(#751),#757,.F.);
#751 = FACE_BOUND('',#752,.T.);
#752 = EDGE_LOOP('',(#753,#754,#755,#756));
#753 = ORIENTED_EDGE('',*,*,#739,.T.);
#754 = ORIENTED_EDGE('',*,*,#530,.T.);
#755 = ORIENTED_EDGE('',*,*,#722,.F.);
#756 = ORIENTED_EDGE('',*,*,#396,.F.);
#757 = CYLINDRICAL_SURFACE('',#758,21.);
#758 = AXIS2_PLACEMENT_3D('',#759,#760,#761);
#759 = CARTESIAN_POINT('',(9.385159838021E-32,1.38888790147E-35,0.));
#760 = DIRECTION('',(-0.,-0.,-1.));
#761 = DIRECTION('',(1.,0.,0.));
#762 = ADVANCED_FACE('',(#763),#782,.F.);
#763 = FACE_BOUND('',#764,.T.);
#764 = EDGE_LOOP('',(#765,#773,#774,#775));
#765 = ORIENTED_EDGE('',*,*,#766,.F.);
#766 = EDGE_CURVE('',#579,#767,#769,.T.);
#767 = VERTEX_POINT('',#768);
#768 = CARTESIAN_POINT('',(23.844234216732,18.122463014207,7.7));
#769 = LINE('',#770,#771);
#770 = CARTESIAN_POINT('',(23.844234216732,18.122463014207,7.7));
#771 = VECTOR('',#772,1.);
#772 = DIRECTION('',(-0.707106781187,-0.,-0.707106781187));
#773 = ORIENTED_EDGE('',*,*,#578,.T.);
#774 = ORIENTED_EDGE('',*,*,#766,.T.);
#775 = ORIENTED_EDGE('',*,*,#776,.F.);
#776 = EDGE_CURVE('',#767,#767,#777,.T.);
#777 = CIRCLE('',#778,2.5);
#778 = AXIS2_PLACEMENT_3D('',#779,#780,#781);
#779 = CARTESIAN_POINT('',(21.344234216732,18.122463014207,7.7));
#780 = DIRECTION('',(0.,0.,1.));
#781 = DIRECTION('',(1.,0.,0.));
#782 = CONICAL_SURFACE('',#783,2.5,0.785398163397);
#783 = AXIS2_PLACEMENT_3D('',#784,#785,#786);
#784 = CARTESIAN_POINT('',(21.344234216732,18.122463014207,7.7));
#785 = DIRECTION('',(0.,0.,1.));
#786 = DIRECTION('',(1.,0.,0.));
#787 = ADVANCED_FACE('',(#788),#807,.F.);
#788 = FACE_BOUND('',#789,.T.);
#789 = EDGE_LOOP('',(#790,#798,#799,#800));
#790 = ORIENTED_EDGE('',*,*,#791,.F.);
#791 = EDGE_CURVE('',#590,#792,#794,.T.);
#792 = VERTEX_POINT('',#793);
#793 = CARTESIAN_POINT('',(-18.71320343559,-21.21320343559,7.7));
#794 = LINE('',#795,#796);
#795 = CARTESIAN_POINT('',(-18.71320343559,-21.21320343559,7.7));
#796 = VECTOR('',#797,1.);
#797 = DIRECTION('',(-0.707106781187,-0.,-0.707106781187));
#798 = ORIENTED_EDGE('',*,*,#589,.T.);
#799 = ORIENTED_EDGE('',*,*,#791,.T.);
#800 = ORIENTED_EDGE('',*,*,#801,.F.);
#801 = EDGE_CURVE('',#792,#792,#802,.T.);
#802 = CIRCLE('',#803,2.5);
#803 = AXIS2_PLACEMENT_3D('',#804,#805,#806);
#804 = CARTESIAN_POINT('',(-21.21320343559,-21.21320343559,7.7));
#805 = DIRECTION('',(0.,0.,1.));
#806 = DIRECTION('',(1.,0.,0.));
#807 = CONICAL_SURFACE('',#808,2.5,0.785398163397);
#808 = AXIS2_PLACEMENT_3D('',#809,#810,#811);
#809 = CARTESIAN_POINT('',(-21.21320343559,-21.21320343559,7.7));
#810 = DIRECTION('',(0.,0.,1.));
#811 = DIRECTION('',(1.,0.,0.));
#812 = ADVANCED_FACE('',(#813),#832,.F.);
#813 = FACE_BOUND('',#814,.T.);
#814 = EDGE_LOOP('',(#815,#823,#824,#825));
#815 = ORIENTED_EDGE('',*,*,#816,.T.);
#816 = EDGE_CURVE('',#817,#767,#819,.T.);
#817 = VERTEX_POINT('',#818);
#818 = CARTESIAN_POINT('',(23.844234216732,18.122463014207,0.));
#819 = LINE('',#820,#821);
#820 = CARTESIAN_POINT('',(23.844234216732,18.122463014207,0.));
#821 = VECTOR('',#822,1.);
#822 = DIRECTION('',(0.,0.,1.));
#823 = ORIENTED_EDGE('',*,*,#776,.T.);
#824 = ORIENTED_EDGE('',*,*,#816,.F.);
#825 = ORIENTED_EDGE('',*,*,#826,.F.);
#826 = EDGE_CURVE('',#817,#817,#827,.T.);
#827 = CIRCLE('',#828,2.5);
#828 = AXIS2_PLACEMENT_3D('',#829,#830,#831);
#829 = CARTESIAN_POINT('',(21.344234216732,18.122463014207,0.));
#830 = DIRECTION('',(0.,0.,1.));
#831 = DIRECTION('',(1.,0.,0.));
#832 = CYLINDRICAL_SURFACE('',#833,2.5);
#833 = AXIS2_PLACEMENT_3D('',#834,#835,#836);
#834 = CARTESIAN_POINT('',(21.344234216732,18.122463014207,0.));
#835 = DIRECTION('',(-0.,-0.,-1.));
#836 = DIRECTION('',(1.,0.,0.));
#837 = ADVANCED_FACE('',(#838),#857,.F.);
#838 = FACE_BOUND('',#839,.T.);
#839 = EDGE_LOOP('',(#840,#848,#849,#850));
#840 = ORIENTED_EDGE('',*,*,#841,.T.);
#841 = EDGE_CURVE('',#842,#792,#844,.T.);
#842 = VERTEX_POINT('',#843);
#843 = CARTESIAN_POINT('',(-18.71320343559,-21.21320343559,0.));
#844 = LINE('',#845,#846);
#845 = CARTESIAN_POINT('',(-18.71320343559,-21.21320343559,0.));
#846 = VECTOR('',#847,1.);
#847 = DIRECTION('',(0.,0.,1.));
#848 = ORIENTED_EDGE('',*,*,#801,.T.);
#849 = ORIENTED_EDGE('',*,*,#841,.F.);
#850 = ORIENTED_EDGE('',*,*,#851,.F.);
#851 = EDGE_CURVE('',#842,#842,#852,.T.);
#852 = CIRCLE('',#853,2.5);
#853 = AXIS2_PLACEMENT_3D('',#854,#855,#856);
#854 = CARTESIAN_POINT('',(-21.21320343559,-21.21320343559,0.));
#855 = DIRECTION('',(0.,0.,1.));
#856 = DIRECTION('',(1.,0.,0.));
#857 = CYLINDRICAL_SURFACE('',#858,2.5);
#858 = AXIS2_PLACEMENT_3D('',#859,#860,#861);
#859 = CARTESIAN_POINT('',(-21.21320343559,-21.21320343559,0.));
#860 = DIRECTION('',(-0.,-0.,-1.));
#861 = DIRECTION('',(1.,0.,0.));
#862 = ADVANCED_FACE('',(#863),#866,.T.);
#863 = FACE_BOUND('',#864,.T.);
#864 = EDGE_LOOP('',(#865));
#865 = ORIENTED_EDGE('',*,*,#826,.T.);
#866 = PLANE('',#867);
#867 = AXIS2_PLACEMENT_3D('',#868,#869,#870);
#868 = CARTESIAN_POINT('',(-8.566E-14,-7.679E-14,0.));
#869 = DIRECTION('',(0.,0.,1.));
#870 = DIRECTION('',(1.,0.,0.));
#871 = ADVANCED_FACE('',(#872),#875,.T.);
#872 = FACE_BOUND('',#873,.T.);
#873 = EDGE_LOOP('',(#874));
#874 = ORIENTED_EDGE('',*,*,#851,.T.);
#875 = PLANE('',#876);
#876 = AXIS2_PLACEMENT_3D('',#877,#878,#879);
#877 = CARTESIAN_POINT('',(-8.566E-14,-7.679E-14,0.));
#878 = DIRECTION('',(0.,0.,1.));
#879 = DIRECTION('',(1.,0.,0.));
#880 = ( GEOMETRIC_REPRESENTATION_CONTEXT(3) 
GLOBAL_UNCERTAINTY_ASSIGNED_CONTEXT((#884)) GLOBAL_UNIT_ASSIGNED_CONTEXT
((#881,#882,#883)) REPRESENTATION_CONTEXT('Context #1',
  '3D Context with UNIT and UNCERTAINTY') );
#881 = ( LENGTH_UNIT() NAMED_UNIT(*) SI_UNIT(.MILLI.,.METRE.) );
#882 = ( NAMED_UNIT(*) PLANE_ANGLE_UNIT() SI_UNIT($,.RADIAN.) );
#883 = ( NAMED_UNIT(*) SI_UNIT($,.STERADIAN.) SOLID_ANGLE_UNIT() );
#884 = UNCERTAINTY_MEASURE_WITH_UNIT(LENGTH_MEASURE(1.E-07),#881,
  'distance_accuracy_value','confusion accuracy');
#885 = PRODUCT_RELATED_PRODUCT_CATEGORY('part',$,(#7));
#886 = MECHANICAL_DESIGN_GEOMETRIC_PRESENTATION_REPRESENTATION('',(#887)
  ,#880);
#887 = STYLED_ITEM('color',(#888),#15);
#888 = PRESENTATION_STYLE_ASSIGNMENT((#889,#895));
#889 = SURFACE_STYLE_USAGE(.BOTH.,#890);
#890 = SURFACE_SIDE_STYLE('',(#891));
#891 = SURFACE_STYLE_FILL_AREA(#892);
#892 = FILL_AREA_STYLE('',(#893));
#893 = FILL_AREA_STYLE_COLOUR('',#894);
#894 = COLOUR_RGB('',0.800000010877,0.800000010877,0.800000010877);
#895 = CURVE_STYLE('',#896,POSITIVE_LENGTH_MEASURE(0.1),#897);
#896 = DRAUGHTING_PRE_DEFINED_CURVE_FONT('continuous');
#897 = COLOUR_RGB('',9.803921802644E-02,9.803921802644E-02,
  9.803921802644E-02);
ENDSEC;
END-ISO-10303-21;
